LC4 Processor/Fetch Stage/dump.vcd
$date
	Sun Apr  9 20:58:06 2023
$end

$version
	Synopsys VCS version S-2021.09
$end

$timescale
	1ps
$end

$comment Csum: 1 00701fe7d9b2850d $end


$scope module $unit $end
$upscope $end


$scope module dram_top $end
$var reg 1 ! clk $end

$scope begin unnamed$$_vcs_3 $end
$upscope $end


$scope begin unnamed$$_vcs_0 $end
$upscope $end


$scope begin unnamed$$_vcs_1 $end
$upscope $end


$scope begin unnamed$$_vcs_2 $end
$upscope $end


$scope module inf $end
$var reg 1 " clk $end
$var reg 1 # reg_we $end
$var reg 1 $ gwe $end
$var reg 1 % rst $end
$var reg 16 & next_pc [15:0] $end
$var reg 16 ' pc [15:0] $end
$var reg 2 ( test_stall_f [1:0] $end
$upscope $end


$scope module dut $end
$var wire 1 ) reg_we $end
$var wire 1 * gwe $end
$var wire 1 + rst $end
$var wire 1 , clk $end
$var wire 16 - next_pc [15:0] $end
$var wire 16 . pc [15:0] $end
$var wire 2 / test_stall_f [1:0] $end

$scope module f_stage $end
$var wire 1 ) we $end
$var wire 1 , clk $end
$var wire 1 + rst $end
$var wire 1 * gwe $end
$var wire 16 - in_pc_reg [15:0] $end
$var wire 2 0 in_stall_f [1:0] $end
$var wire 16 . out_pc_reg [15:0] $end
$var wire 2 / out_stall_f [1:0] $end

$scope module pc_reg $end
$var wire 16 - in [15:0] $end
$var wire 16 . out [15:0] $end
$var wire 1 , clk $end
$var wire 1 ) we $end
$var wire 1 * gwe $end
$var wire 1 + rst $end
$var reg 16 1 state [15:0] $end
$upscope $end


$scope module stall_f $end
$var wire 2 2 in [1:0] $end
$var wire 2 / out [1:0] $end
$var wire 1 , clk $end
$var wire 1 ) we $end
$var wire 1 * gwe $end
$var wire 1 + rst $end
$var reg 2 3 state [1:0] $end
$upscope $end

$upscope $end

$upscope $end

$upscope $end


$scope module uvm_pkg $end
$var reg 32 4 UVM_UNBOUNDED_CONNECTIONS [31:0] $end
$var reg 1 5 uvm_start_uvm_declarations $end
$var time 64 6 setting_offset $end
$var reg 32 7 setting_verbosity [31:0] $end
$var reg 1 8 is_verdi_set_verbosity_called $end
$var reg 32 9 uvm_global_random_seed [31:0] $end
$upscope $end

$enddefinitions $end

#0
$dumpvars
08
15
bxxxxxxxxxxxxxxxxxxxxxxxxxxxxxxxxxxxxxxxxxxxxxxxxxxxxxxxxxxxxxxxx 6
b11111111111111111111111111111111 4
b00000000000000000000000000000000 7
b01000010000001111100110001000111 9
0!
bxx (
bxxxxxxxxxxxxxxxx '
bxxxxxxxxxxxxxxxx &
bxx 3
bxxxxxxxxxxxxxxxx 1
b00 2
b00 0
bxxxxxxxxxxxxxxxx -
bxxxxxxxxxxxxxxxx .
bxx /
0,
x*
x)
0+
0"
x$
x#
0%
$end
#5000
1!
1"
1,
1$
1*
1#
1)
b1111100000011001 &
b1111100000011001 -
b1111100000011001 1
b00 3
#6000
b1111100000011001 .
b1111100000011001 '
b00 /
b00 (
#10000
0!
0"
0,
#15000
1!
1"
1,
#20000
0!
0"
0,
#25000
1!
1"
1,
b1011011100110011 &
b1011011100110011 -
b1011011100110011 1
#26000
b1011011100110011 .
b1011011100110011 '
#30000
0!
0"
0,
#35000
1!
1"
1,
#40000
0!
0"
0,
#45000
1!
1"
1,
b1011001011001010 &
b1011001011001010 -
b1011001011001010 1
#46000
b1011001011001010 .
b1011001011001010 '
#50000
0!
0"
0,
#55000
1!
1"
1,
#60000
0!
0"
0,
#65000
1!
1"
1,
b0100100111111101 &
b0100100111111101 -
b0100100111111101 1
#66000
b0100100111111101 .
b0100100111111101 '
#70000
0!
0"
0,
#75000
1!
1"
1,
#80000
0!
0"
0,
#85000
1!
1"
1,
b0001011010010101 &
b0001011010010101 -
b0001011010010101 1
#86000
b0001011010010101 .
b0001011010010101 '
#90000
0!
0"
0,
#95000
1!
1"
1,
#100000
0!
0"
0,
#105000
1!
1"
1,
b1101010111101110 &
b1101010111101110 -
b1101010111101110 1
#106000
b1101010111101110 .
b1101010111101110 '
#110000
0!
0"
0,
#115000
1!
1"
1,
#120000
0!
0"
0,
#125000
1!
1"
1,
b1101110111000001 &
b1101110111000001 -
b1101110111000001 1
#126000
b1101110111000001 .
b1101110111000001 '
#130000
0!
0"
0,
#135000
1!
1"
1,
#140000
0!
0"
0,
#145000
1!
1"
1,
b1101011111011000 &
b1101011111011000 -
b1101011111011000 1
#146000
b1101011111011000 .
b1101011111011000 '
#150000
0!
0"
0,
#155000
1!
1"
1,
#160000
0!
0"
0,
#165000
1!
1"
1,
b0000100110101000 &
b0000100110101000 -
b0000100110101000 1
#166000
b0000100110101000 .
b0000100110101000 '
#170000
0!
0"
0,
#175000
1!
1"
1,
#180000
0!
0"
0,
#185000
1!
1"
1,
b0011110110111011 &
b0011110110111011 -
b0011110110111011 1
#186000
b0011110110111011 .
b0011110110111011 '
#190000
0!
0"
0,
#195000
1!
1"
1,
#200000
0!
0"
0,
#205000
1!
1"
1,
b0000001001001011 &
b0000001001001011 -
b0000001001001011 1
#206000
b0000001001001011 .
b0000001001001011 '
#210000
0!
0"
0,
#215000
1!
1"
1,
#220000
0!
0"
0,
#225000
1!
1"
1,
b0011100101100011 &
b0011100101100011 -
b0011100101100011 1
#226000
b0011100101100011 .
b0011100101100011 '
#230000
0!
0"
0,
#235000
1!
1"
1,
#240000
0!
0"
0,
#245000
1!
1"
1,
b1100011011111010 &
b1100011011111010 -
b1100011011111010 1
#246000
b1100011011111010 .
b1100011011111010 '
#250000
0!
0"
0,
#255000
1!
1"
1,
#260000
0!
0"
0,
#265000
1!
1"
1,
b0001000111010110 &
b0001000111010110 -
b0001000111010110 1
#266000
b0001000111010110 .
b0001000111010110 '
#270000
0!
0"
0,
#275000
1!
1"
1,
#280000
0!
0"
0,
#285000
1!
1"
1,
b0010011010010011 &
b0010011010010011 -
b0010011010010011 1
#286000
b0010011010010011 .
b0010011010010011 '
#290000
0!
0"
0,
#295000
1!
1"
1,
#300000
0!
0"
0,
#305000
1!
1"
1,
b0010010001011111 &
b0010010001011111 -
b0010010001011111 1
#306000
b0010010001011111 .
b0010010001011111 '
#310000
0!
0"
0,
#315000
1!
1"
1,
#320000
0!
0"
0,
#325000
1!
1"
1,
b0101100001001101 &
b0101100001001101 -
b0101100001001101 1
#326000
b0101100001001101 .
b0101100001001101 '
#330000
0!
0"
0,
#335000
1!
1"
1,
#340000
0!
0"
0,
#345000
1!
1"
1,
b1010011111110011 &
b1010011111110011 -
b1010011111110011 1
#346000
b1010011111110011 .
b1010011111110011 '
#350000
0!
0"
0,
#355000
1!
1"
1,
#360000
0!
0"
0,
#365000
1!
1"
1,
b0110000110001110 &
b0110000110001110 -
b0110000110001110 1
#366000
b0110000110001110 .
b0110000110001110 '
#370000
0!
0"
0,
#375000
1!
1"
1,
#380000
0!
0"
0,
#385000
1!
1"
1,
b1111110001010000 &
b1111110001010000 -
b1111110001010000 1
#386000
b1111110001010000 .
b1111110001010000 '
#390000
0!
0"
0,
#395000
1!
1"
1,
#400000
0!
0"
0,
#405000
1!
1"
1,
b0000100010101000 &
b0000100010101000 -
b0000100010101000 1
#406000
b0000100010101000 .
b0000100010101000 '
#410000
0!
0"
0,
#415000
1!
1"
1,
#420000
0!
0"
0,
#425000
1!
1"
1,
b0100101011100111 &
b0100101011100111 -
b0100101011100111 1
#426000
b0100101011100111 .
b0100101011100111 '
#430000
0!
0"
0,
#435000
1!
1"
1,
#440000
0!
0"
0,
#445000
1!
1"
1,
b0011110011100111 &
b0011110011100111 -
b0011110011100111 1
#446000
b0011110011100111 .
b0011110011100111 '
#450000
0!
0"
0,
#455000
1!
1"
1,
#460000
0!
0"
0,
#465000
1!
1"
1,
b1100100011100100 &
b1100100011100100 -
b1100100011100100 1
#466000
b1100100011100100 .
b1100100011100100 '
#470000
0!
0"
0,
#475000
1!
1"
1,
#480000
0!
0"
0,
#485000
1!
1"
1,
b0110011110110000 &
b0110011110110000 -
b0110011110110000 1
#486000
b0110011110110000 .
b0110011110110000 '
#490000
0!
0"
0,
#495000
1!
1"
1,
#500000
0!
0"
0,
#505000
1!
1"
1,
b0110101001110110 &
b0110101001110110 -
b0110101001110110 1
#506000
b0110101001110110 .
b0110101001110110 '
#510000
0!
0"
0,
#515000
1!
1"
1,
#520000
0!
0"
0,
#525000
1!
1"
1,
b0001000101111101 &
b0001000101111101 -
b0001000101111101 1
#526000
b0001000101111101 .
b0001000101111101 '
#530000
0!
0"
0,
#535000
1!
1"
1,
#540000
0!
0"
0,
#545000
1!
1"
1,
b0010000011110110 &
b0010000011110110 -
b0010000011110110 1
#546000
b0010000011110110 .
b0010000011110110 '
#550000
0!
0"
0,
#555000
1!
1"
1,
#560000
0!
0"
0,
#565000
1!
1"
1,
b0001011010100001 &
b0001011010100001 -
b0001011010100001 1
#566000
b0001011010100001 .
b0001011010100001 '
#570000
0!
0"
0,
#575000
1!
1"
1,
#580000
0!
0"
0,
#585000
1!
1"
1,
b0110001000000100 &
b0110001000000100 -
b0110001000000100 1
#586000
b0110001000000100 .
b0110001000000100 '
#590000
0!
0"
0,
#595000
1!
1"
1,
#600000
0!
0"
0,
#605000
1!
1"
1,
b0011001011111000 &
b0011001011111000 -
b0011001011111000 1
#606000
b0011001011111000 .
b0011001011111000 '
#610000
0!
0"
0,
#615000
1!
1"
1,
#620000
0!
0"
0,
#625000
1!
1"
1,
b0001011101110000 &
b0001011101110000 -
b0001011101110000 1
#626000
b0001011101110000 .
b0001011101110000 '
#630000
0!
0"
0,
#635000
1!
1"
1,
#640000
0!
0"
0,
#645000
1!
1"
1,
b0100010010110010 &
b0100010010110010 -
b0100010010110010 1
#646000
b0100010010110010 .
b0100010010110010 '
#650000
0!
0"
0,
#655000
1!
1"
1,
#660000
0!
0"
0,
#665000
1!
1"
1,
b1011010101011100 &
b1011010101011100 -
b1011010101011100 1
#666000
b1011010101011100 .
b1011010101011100 '
#670000
0!
0"
0,
#675000
1!
1"
1,
#680000
0!
0"
0,
#685000
1!
1"
1,
b0100001001011000 &
b0100001001011000 -
b0100001001011000 1
#686000
b0100001001011000 .
b0100001001011000 '
#690000
0!
0"
0,
#695000
1!
1"
1,
#700000
0!
0"
0,
#705000
1!
1"
1,
b1001000110010100 &
b1001000110010100 -
b1001000110010100 1
#706000
b1001000110010100 .
b1001000110010100 '
#710000
0!
0"
0,
#715000
1!
1"
1,
#720000
0!
0"
0,
#725000
1!
1"
1,
b1000110101110010 &
b1000110101110010 -
b1000110101110010 1
#726000
b1000110101110010 .
b1000110101110010 '
#730000
0!
0"
0,
#735000
1!
1"
1,
#740000
0!
0"
0,
#745000
1!
1"
1,
b0111010000010110 &
b0111010000010110 -
b0111010000010110 1
#746000
b0111010000010110 .
b0111010000010110 '
#750000
0!
0"
0,
#755000
1!
1"
1,
#760000
0!
0"
0,
#765000
1!
1"
1,
b0101110101010001 &
b0101110101010001 -
b0101110101010001 1
#766000
b0101110101010001 .
b0101110101010001 '
#770000
0!
0"
0,
#775000
1!
1"
1,
#780000
0!
0"
0,
#785000
1!
1"
1,
b1111100101100011 &
b1111100101100011 -
b1111100101100011 1
#786000
b1111100101100011 .
b1111100101100011 '
#790000
0!
0"
0,
#795000
1!
1"
1,
#800000
0!
0"
0,
#805000
1!
1"
1,
b0101000011111100 &
b0101000011111100 -
b0101000011111100 1
#806000
b0101000011111100 .
b0101000011111100 '
#810000
0!
0"
0,
#815000
1!
1"
1,
#820000
0!
0"
0,
#825000
1!
1"
1,
b1110110100010110 &
b1110110100010110 -
b1110110100010110 1
#826000
b1110110100010110 .
b1110110100010110 '
#830000
0!
0"
0,
#835000
1!
1"
1,
#840000
0!
0"
0,
#845000
1!
1"
1,
b0101111011110011 &
b0101111011110011 -
b0101111011110011 1
#846000
b0101111011110011 .
b0101111011110011 '
#850000
0!
0"
0,
#855000
1!
1"
1,
#860000
0!
0"
0,
#865000
1!
1"
1,
b0110011100011010 &
b0110011100011010 -
b0110011100011010 1
#866000
b0110011100011010 .
b0110011100011010 '
#870000
0!
0"
0,
#875000
1!
1"
1,
#880000
0!
0"
0,
#885000
1!
1"
1,
b0111111010011001 &
b0111111010011001 -
b0111111010011001 1
#886000
b0111111010011001 .
b0111111010011001 '
#890000
0!
0"
0,
#895000
1!
1"
1,
#900000
0!
0"
0,
#905000
1!
1"
1,
b0000000000001111 &
b0000000000001111 -
b0000000000001111 1
#906000
b0000000000001111 .
b0000000000001111 '
#910000
0!
0"
0,
#915000
1!
1"
1,
#920000
0!
0"
0,
#925000
1!
1"
1,
b1100101101001010 &
b1100101101001010 -
b1100101101001010 1
#926000
b1100101101001010 .
b1100101101001010 '
#930000
0!
0"
0,
#935000
1!
1"
1,
#940000
0!
0"
0,
#945000
1!
1"
1,
b1011101100100100 &
b1011101100100100 -
b1011101100100100 1
#946000
b1011101100100100 .
b1011101100100100 '
#950000
0!
0"
0,
#955000
1!
1"
1,
#960000
0!
0"
0,
#965000
1!
1"
1,
b0101100000101011 &
b0101100000101011 -
b0101100000101011 1
#966000
b0101100000101011 .
b0101100000101011 '
#970000
0!
0"
0,
#975000
1!
1"
1,
#980000
0!
0"
0,
#985000
1!
1"
1,
b0100111111001100 &
b0100111111001100 -
b0100111111001100 1
#986000
b0100111111001100 .
b0100111111001100 '
