16-Bit Carry Look Adder/4-Bit CLA/4-Bit CLA Functionality/dump.vcd
$date
	Thu Feb  2 19:53:41 2023
$end

$version
	Synopsys VCS version S-2021.09
$end

$timescale
	1ps
$end

$comment Csum: 1 4ae5869bc9cbc418 $end


$scope module $unit $end
$upscope $end


$scope module testbench $end
$var reg 1 ! clk $end

$scope begin unnamed$$_vcs_2 $end
$upscope $end


$scope begin unnamed$$_vcs_0 $end
$upscope $end


$scope begin unnamed$$_vcs_1 $end
$upscope $end


$scope module _if $end
$var reg 4 " gin [3:0] $end
$var reg 4 # pin [3:0] $end
$var reg 1 $ cin $end
$var reg 3 % cout [2:0] $end
$var reg 1 & gout $end
$var reg 1 ' pout $end
$var reg 1 ( clk $end
$upscope $end


$scope module u0 $end
$var wire 4 ) gin [3:0] $end
$var wire 4 * pin [3:0] $end
$var wire 1 + cin $end
$var wire 1 , gout $end
$var wire 1 - pout $end
$var wire 3 . cout [2:0] $end
$upscope $end

$upscope $end


$scope module uvm_pkg $end
$var reg 32 / UVM_UNBOUNDED_CONNECTIONS [31:0] $end
$var reg 1 0 uvm_start_uvm_declarations $end
$var time 64 1 setting_offset $end
$var reg 32 2 setting_verbosity [31:0] $end
$var reg 1 3 is_verdi_set_verbosity_called $end
$var reg 32 4 uvm_global_random_seed [31:0] $end
$upscope $end

$enddefinitions $end

#0
$dumpvars
03
10
bxxxxxxxxxxxxxxxxxxxxxxxxxxxxxxxxxxxxxxxxxxxxxxxxxxxxxxxxxxxxxxxx 1
b11111111111111111111111111111111 /
b00000000000000000000000000000000 2
b01000010000001111100110001000111 4
0!
bxxx %
bxxxx #
bxxxx "
bxxxx )
bxxxx *
bxxx .
x+
x,
x-
0(
x$
x&
x'
$end
#10000
1!
1(
b1100 "
b1100 )
b0000 #
b0000 *
0-
0'
1$
1+
1,
1&
b100 .
b100 %
#20000
0!
0(
#30000
1!
1(
b0001 "
b0001 )
b1010 #
b1010 *
0,
0&
b001 .
b001 %
b011 .
b011 %
#40000
0!
0(
#50000
1!
1(
b0110 #
b0110 *
b111 .
b111 %
#60000
0!
0(
#70000
1!
1(
b0100 "
b0100 )
b1111 #
b1111 *
1-
1'
0$
0+
1,
1&
b110 .
b110 %
b100 .
b100 %
#80000
0!
0(
#90000
1!
1(
b0111 "
b0111 )
b0000 #
b0000 *
0-
0'
1$
1+
0,
0&
b111 .
b111 %
#100000
0!
0(
#110000
1!
1(
b0000 "
b0000 )
b1010 #
b1010 *
b010 .
b010 %
b000 .
b000 %
#120000
0!
0(
#130000
1!
1(
b1010 "
b1010 )
b0101 #
b0101 *
1,
1&
b011 .
b011 %
b111 .
b111 %
#140000
0!
0(
#150000
1!
1(
b0110 "
b0110 )
b0011 #
b0011 *
0$
0+
0,
0&
b110 .
b110 %
#160000
0!
0(
#170000
1!
1(
b1101 "
b1101 )
b1111 #
b1111 *
1-
1'
1$
1+
1,
1&
b101 .
b101 %
b111 .
b111 %
#180000
0!
0(
#190000
1!
1(
b0111 "
b0111 )
b0001 #
b0001 *
0-
0'
0,
0&
#200000
0!
0(
#210000
1!
1(
b1011 "
b1011 )
b1001 #
b1001 *
0$
0+
1,
1&
b011 .
b011 %
#220000
0!
0(
#230000
1!
1(
b1001 "
b1001 )
b0110 #
b0110 *
b111 .
b111 %
#240000
0!
0(
#250000
1!
1(
b0111 "
b0111 )
b0010 #
b0010 *
1$
1+
0,
0&
#260000
0!
0(
#270000
1!
1(
b0001 "
b0001 )
b0011 #
b0011 *
b011 .
b011 %
#280000
0!
0(
#290000
1!
1(
b1001 "
b1001 )
b1010 #
b1010 *
1,
1&
#300000
0!
0(
#310000
1!
1(
b0111 "
b0111 )
b1000 #
b1000 *
0$
0+
b111 .
b111 %
#320000
0!
0(
#330000
1!
1(
b1100 "
b1100 )
b0100 #
b0100 *
1$
1+
b100 .
b100 %
#340000
0!
0(
#350000
1!
1(
b1111 "
b1111 )
b1111 #
b1111 *
1-
1'
b111 .
b111 %
#360000
0!
0(
#370000
1!
1(
b0101 #
b0101 *
0-
0'
#380000
0!
0(
#390000
1!
1(
b1000 "
b1000 )
b0100 #
b0100 *
b100 .
b100 %
b000 .
b000 %
#400000
0!
0(
#410000
1!
1(
b0000 "
b0000 )
b1000 #
b1000 *
0$
0+
0,
0&
#420000
0!
0(
#430000
1!
1(
b0100 "
b0100 )
b0100 #
b0100 *
b100 .
b100 %
#440000
0!
0(
#450000
1!
1(
b1100 "
b1100 )
b0001 #
b0001 *
1,
1&
#460000
0!
0(
#470000
1!
1(
b0100 "
b0100 )
0,
0&
#480000
0!
0(
#490000
1!
1(
b1000 "
b1000 )
b1111 #
b1111 *
1-
1'
1$
1+
1,
1&
b001 .
b001 %
b011 .
b011 %
b111 .
b111 %
#500000
0!
0(
#510000
1!
1(
b0001 "
b0001 )
b0110 #
b0110 *
0-
0'
0,
0&
#520000
0!
0(
#530000
1!
1(
b0110 "
b0110 )
b1001 #
b1001 *
0$
0+
1,
1&
b110 .
b110 %
#540000
0!
0(
#550000
1!
1(
b1010 "
b1010 )
b1010 #
b1010 *
1$
1+
b010 .
b010 %
#560000
0!
0(
#570000
1!
1(
b0101 #
b0101 *
0$
0+
b110 .
b110 %
#580000
0!
0(
#590000
1!
1(
b1100 "
b1100 )
b0110 #
b0110 *
b100 .
b100 %
#600000
0!
0(
#610000
1!
1(
b0001 "
b0001 )
b0010 #
b0010 *
0,
0&
b001 .
b001 %
b011 .
b011 %
#620000
0!
0(
#630000
1!
1(
b0000 "
b0000 )
b1111 #
b1111 *
1-
1'
b110 .
b110 %
b100 .
b100 %
b000 .
b000 %
#640000
0!
0(
#650000
1!
1(
b1110 "
b1110 )
b1011 #
b1011 *
0-
0'
1$
1+
1,
1&
b111 .
b111 %
#660000
0!
0(
#670000
1!
1(
b0111 "
b0111 )
b1000 #
b1000 *
0$
0+
#680000
0!
0(
#690000
1!
1(
b0010 "
b0010 )
b0111 #
b0111 *
0,
0&
b110 .
b110 %
#700000
0!
0(
#710000
1!
1(
b1101 "
b1101 )
b0000 #
b0000 *
1,
1&
b101 .
b101 %
#720000
0!
0(
#730000
1!
1(
b0001 "
b0001 )
b1110 #
b1110 *
b011 .
b011 %
b111 .
b111 %
#740000
0!
0(
#750000
1!
1(
b0101 "
b0101 )
b0110 #
b0110 *
0,
0&
#760000
0!
0(
#770000
1!
1(
b0110 "
b0110 )
b1001 #
b1001 *
1,
1&
b110 .
b110 %
#780000
0!
0(
#790000
1!
1(
b0100 "
b0100 )
b1100 #
b1100 *
1$
1+
b100 .
b100 %
#800000
0!
0(
#810000
1!
1(
b1100 "
b1100 )
b1010 #
b1010 *
0$
0+
#820000
0!
0(
#830000
1!
1(
b0100 "
b0100 )
b0110 #
b0110 *
0,
0&
#840000
0!
0(
#850000
1!
1(
b0000 "
b0000 )
b1010 #
b1010 *
b000 .
b000 %
#860000
0!
0(
#870000
1!
1(
b1101 "
b1101 )
b1001 #
b1001 *
1$
1+
1,
1&
b101 .
b101 %
#880000
0!
0(
#890000
1!
1(
b0000 "
b0000 )
b1000 #
b1000 *
0,
0&
b000 .
b000 %
#900000
0!
0(
#910000
1!
1(
b0110 "
b0110 )
1,
1&
b110 .
b110 %
#920000
0!
0(
#930000
1!
1(
b0001 "
b0001 )
b1101 #
b1101 *
0$
0+
0,
0&
b101 .
b101 %
b001 .
b001 %
#940000
0!
0(
#950000
1!
1(
b0111 "
b0111 )
b0100 #
b0100 *
b111 .
b111 %
#960000
0!
0(
#970000
1!
1(
b1001 "
b1001 )
b0110 #
b0110 *
1$
1+
1,
1&
#980000
0!
0(
#990000
1!
1(
b1101 "
b1101 )
b1000 #
b1000 *
b101 .
b101 %
#1000000
0!
0(
#1010000
1!
1(
b1000 "
b1000 )
b0000 #
b0000 *
b000 .
b000 %
#1020000
0!
0(
#1030000
1!
1(
b0011 "
b0011 )
b0011 #
b0011 *
0,
0&
b011 .
b011 %
#1040000
0!
0(
#1050000
1!
1(
b0101 "
b0101 )
b111 .
b111 %
#1060000
0!
0(
#1070000
1!
1(
b1000 "
b1000 )
b1101 #
b1101 *
0$
0+
1,
1&
b100 .
b100 %
b000 .
b000 %
#1080000
0!
0(
#1090000
1!
1(
b1110 "
b1110 )
b0101 #
b0101 *
1$
1+
b111 .
b111 %
#1100000
0!
0(
#1110000
1!
1(
b1101 #
b1101 *
0$
0+
b110 .
b110 %
#1120000
0!
0(
#1130000
1!
1(
b0000 "
b0000 )
b1000 #
b1000 *
1$
1+
0,
0&
b000 .
b000 %
#1140000
0!
0(
#1150000
1!
1(
b1001 "
b1001 )
b0111 #
b0111 *
1,
1&
b001 .
b001 %
b011 .
b011 %
b111 .
b111 %
#1160000
0!
0(
#1170000
1!
1(
b0011 "
b0011 )
b0011 #
b0011 *
0,
0&
b011 .
b011 %
#1180000
0!
0(
#1190000
1!
1(
b0010 "
b0010 )
b1000 #
b1000 *
b010 .
b010 %
#1200000
0!
0(
#1210000
1!
1(
b1111 "
b1111 )
b1100 #
b1100 *
1,
1&
b111 .
b111 %
#1220000
0!
0(
#1230000
1!
1(
b0111 "
b0111 )
b1011 #
b1011 *
0$
0+
#1240000
0!
0(
#1250000
1!
1(
b1011 "
b1011 )
b1010 #
b1010 *
b011 .
b011 %
#1260000
0!
0(
#1270000
1!
1(
b0011 "
b0011 )
b1110 #
b1110 *
b111 .
b111 %
#1280000
0!
0(
#1290000
1!
1(
b0010 "
b0010 )
b1011 #
b1011 *
1$
1+
0,
0&
b011 .
b011 %
#1300000
0!
0(
#1310000
1!
1(
b0100 "
b0100 )
b1110 #
b1110 *
0$
0+
1,
1&
b110 .
b110 %
b100 .
b100 %
#1320000
0!
0(
#1330000
1!
1(
b1101 "
b1101 )
b0001 #
b0001 *
1$
1+
b101 .
b101 %
#1340000
0!
0(
#1350000
1!
1(
b1001 "
b1001 )
b0111 #
b0111 *
b011 .
b011 %
b111 .
b111 %
#1360000
0!
0(
#1370000
1!
1(
b1010 "
b1010 )
b0101 #
b0101 *
0$
0+
b110 .
b110 %
#1380000
0!
0(
#1390000
1!
1(
b0000 "
b0000 )
0,
0&
b100 .
b100 %
b000 .
b000 %
#1400000
0!
0(
#1410000
1!
1(
b0101 "
b0101 )
b1101 #
b1101 *
1,
1&
b101 .
b101 %
#1420000
0!
0(
#1430000
1!
1(
b1000 "
b1000 )
b1001 #
b1001 *
b000 .
b000 %
#1440000
0!
0(
#1450000
1!
1(
b1001 "
b1001 )
b0010 #
b0010 *
1$
1+
b001 .
b001 %
b011 .
b011 %
#1460000
0!
0(
#1470000
1!
1(
b0100 "
b0100 )
b0111 #
b0111 *
0$
0+
0,
0&
b110 .
b110 %
b100 .
b100 %
#1480000
0!
0(
#1490000
1!
1(
b1010 "
b1010 )
b1011 #
b1011 *
1$
1+
1,
1&
b011 .
b011 %
#1500000
0!
0(
#1510000
1!
1(
b1110 "
b1110 )
b0001 #
b0001 *
b111 .
b111 %
#1520000
0!
0(
#1530000
1!
1(
b1101 "
b1101 )
b1000 #
b1000 *
b101 .
b101 %
#1540000
0!
0(
#1550000
1!
1(
b1011 "
b1011 )
b1110 #
b1110 *
b011 .
b011 %
b111 .
b111 %
#1560000
0!
0(
#1570000
1!
1(
b0010 "
b0010 )
b0110 #
b0110 *
0,
0&
b110 .
b110 %
#1580000
0!
0(
#1590000
1!
1(
b1010 "
b1010 )
b1100 #
b1100 *
0$
0+
1,
1&
#1600000
0!
0(
#1610000
1!
1(
b1001 "
b1001 )
b0110 #
b0110 *
1$
1+
b101 .
b101 %
b011 .
b011 %
b111 .
b111 %
#1620000
0!
0(
#1630000
1!
1(
b0110 "
b0110 )
b1011 #
b1011 *
#1640000
0!
0(
#1650000
1!
1(
b0011 "
b0011 )
b0000 #
b0000 *
0,
0&
b011 .
b011 %
#1660000
0!
0(
#1670000
1!
1(
b0011 #
b0011 *
0$
0+
#1680000
0!
0(
#1690000
1!
1(
b1100 "
b1100 )
b1101 #
b1101 *
1$
1+
1,
1&
b101 .
b101 %
#1700000
0!
0(
#1710000
1!
1(
b0011 "
b0011 )
b1010 #
b1010 *
0$
0+
0,
0&
b011 .
b011 %
#1720000
0!
0(
#1730000
1!
1(
b0110 "
b0110 )
b1111 #
b1111 *
1-
1'
1,
1&
b110 .
b110 %
#1740000
0!
0(
#1750000
1!
1(
b1011 "
b1011 )
b0101 #
b0101 *
0-
0'
1$
1+
b111 .
b111 %
#1760000
0!
0(
#1770000
1!
1(
b1010 "
b1010 )
b0111 #
b0111 *
#1780000
0!
0(
#1790000
1!
1(
b0111 "
b0111 )
b0101 #
b0101 *
0,
0&
#1800000
0!
0(
#1810000
1!
1(
#1820000
0!
0(
#1830000
1!
1(
b1111 "
b1111 )
b0001 #
b0001 *
0$
0+
1,
1&
#1840000
0!
0(
#1850000
1!
1(
b1011 "
b1011 )
b1000 #
b1000 *
b011 .
b011 %
#1860000
0!
0(
#1870000
1!
1(
b0000 #
b0000 *
1$
1+
#1880000
0!
0(
#1890000
1!
1(
b1101 "
b1101 )
b1000 #
b1000 *
b101 .
b101 %
#1900000
0!
0(
#1910000
1!
1(
b0001 "
b0001 )
b0010 #
b0010 *
0,
0&
b011 .
b011 %
#1920000
0!
0(
#1930000
1!
1(
b0011 "
b0011 )
b1001 #
b1001 *
#1940000
0!
0(
#1950000
1!
1(
b1111 "
b1111 )
b0001 #
b0001 *
1,
1&
b111 .
b111 %
#1960000
0!
0(
#1970000
1!
1(
b1010 "
b1010 )
b1001 #
b1001 *
0$
0+
b010 .
b010 %
#1980000
0!
0(
#1990000
1!
1(
b1011 "
b1011 )
b0011 #
b0011 *
1$
1+
b011 .
b011 %
#2000000
0!
0(
#2010000
1!
1(
b0110 "
b0110 )
b0101 #
b0101 *
0,
0&
b111 .
b111 %
#2020000
0!
0(
#2030000
1!
1(
b1000 "
b1000 )
b0000 #
b0000 *
0$
0+
1,
1&
b000 .
b000 %
#2040000
0!
0(
#2050000
1!
1(
b0010 #
b0010 *
#2060000
0!
0(
#2070000
1!
1(
b1001 "
b1001 )
b1001 #
b1001 *
1$
1+
b001 .
b001 %
#2080000
0!
0(
#2090000
1!
1(
b1010 "
b1010 )
b011 .
b011 %
#2100000
0!
0(
#2110000
1!
1(
b1000 "
b1000 )
b0011 #
b0011 *
0$
0+
b010 .
b010 %
b000 .
b000 %
#2120000
0!
0(
#2130000
1!
1(
b0111 "
b0111 )
b1111 #
b1111 *
1-
1'
1$
1+
b111 .
b111 %
#2140000
0!
0(
#2150000
1!
1(
b1010 "
b1010 )
b0100 #
b0100 *
0-
0'
0$
0+
b110 .
b110 %
#2160000
0!
0(
#2170000
1!
1(
b1110 "
b1110 )
b0101 #
b0101 *
1$
1+
b111 .
b111 %
#2180000
0!
0(
#2190000
1!
1(
b1101 "
b1101 )
b1010 #
b1010 *
0$
0+
#2200000
0!
0(
#2210000
1!
1(
b1110 "
b1110 )
b1101 #
b1101 *
1$
1+
#2220000
0!
0(
#2230000
1!
1(
b1111 "
b1111 )
b1011 #
b1011 *
#2240000
0!
0(
#2250000
1!
1(
b0100 "
b0100 )
b1000 #
b1000 *
0$
0+
b100 .
b100 %
#2260000
0!
0(
#2270000
1!
1(
b0011 "
b0011 )
b1010 #
b1010 *
0,
0&
b011 .
b011 %
#2280000
0!
0(
#2290000
1!
1(
b1111 "
b1111 )
b1011 #
b1011 *
1$
1+
1,
1&
b111 .
b111 %
#2300000
0!
0(
#2310000
1!
1(
b1001 "
b1001 )
b0001 #
b0001 *
b001 .
b001 %
#2320000
0!
0(
#2330000
1!
1(
b0111 #
b0111 *
b011 .
b011 %
b111 .
b111 %
#2340000
0!
0(
#2350000
1!
1(
b1111 "
b1111 )
b1010 #
b1010 *
0$
0+
#2360000
0!
0(
#2370000
1!
1(
b0110 "
b0110 )
b110 .
b110 %
#2380000
0!
0(
#2390000
1!
1(
b0000 "
b0000 )
b0110 #
b0110 *
1$
1+
0,
0&
b100 .
b100 %
b000 .
b000 %
#2400000
0!
0(
#2410000
1!
1(
b1100 "
b1100 )
b1011 #
b1011 *
0$
0+
1,
1&
b100 .
b100 %
#2420000
0!
0(
#2430000
1!
1(
b0100 "
b0100 )
b1100 #
b1100 *
1$
1+
#2440000
0!
0(
#2450000
1!
1(
b1000 "
b1000 )
b1000 #
b1000 *
0$
0+
b000 .
b000 %
#2460000
0!
0(
#2470000
1!
1(
b1101 "
b1101 )
b0111 #
b0111 *
b101 .
b101 %
b111 .
b111 %
#2480000
0!
0(
#2490000
1!
1(
b1001 "
b1001 )
b0101 #
b0101 *
b101 .
b101 %
b001 .
b001 %
#2500000
0!
0(
#2510000
1!
1(
b1011 "
b1011 )
b0010 #
b0010 *
1$
1+
b011 .
b011 %
#2520000
0!
0(
#2530000
1!
1(
b1100 "
b1100 )
b1111 #
b1111 *
1-
1'
b111 .
b111 %
#2540000
0!
0(
#2550000
1!
1(
b1001 "
b1001 )
b1001 #
b1001 *
0-
0'
b001 .
b001 %
#2560000
0!
0(
#2570000
1!
1(
b0101 "
b0101 )
b0000 #
b0000 *
0,
0&
b101 .
b101 %
#2580000
0!
0(
#2590000
1!
1(
b1111 #
b1111 *
1-
1'
0$
0+
1,
1&
b111 .
b111 %
#2600000
0!
0(
#2610000
1!
1(
b1010 "
b1010 )
b0001 #
b0001 *
0-
0'
1$
1+
b011 .
b011 %
#2620000
0!
0(
#2630000
1!
1(
b1111 "
b1111 )
b1110 #
b1110 *
0$
0+
b111 .
b111 %
#2640000
0!
0(
#2650000
1!
1(
b0111 "
b0111 )
b1000 #
b1000 *
#2660000
0!
0(
#2670000
1!
1(
b0110 "
b0110 )
b1101 #
b1101 *
1$
1+
#2680000
0!
0(
#2690000
1!
1(
b0111 "
b0111 )
b1010 #
b1010 *
#2700000
0!
0(
#2710000
1!
1(
b1111 "
b1111 )
b1111 #
b1111 *
1-
1'
#2720000
0!
0(
#2730000
1!
1(
b1011 "
b1011 )
b0101 #
b0101 *
0-
0'
#2740000
0!
0(
#2750000
1!
1(
b1110 "
b1110 )
b1001 #
b1001 *
#2760000
0!
0(
#2770000
1!
1(
b0001 "
b0001 )
b0110 #
b0110 *
0$
0+
0,
0&
#2780000
0!
0(
#2790000
1!
1(
b1110 "
b1110 )
b0101 #
b0101 *
1,
1&
b110 .
b110 %
#2800000
0!
0(
#2810000
1!
1(
b0000 "
b0000 )
1$
1+
0,
0&
b101 .
b101 %
b001 .
b001 %
#2820000
0!
0(
#2830000
1!
1(
b1000 "
b1000 )
b1100 #
b1100 *
1,
1&
b000 .
b000 %
#2840000
0!
0(
#2850000
1!
1(
b1001 "
b1001 )
b0001 #
b0001 *
0$
0+
b001 .
b001 %
#2860000
0!
0(
#2870000
1!
1(
b1111 "
b1111 )
b1000 #
b1000 *
1$
1+
b111 .
b111 %
#2880000
0!
0(
#2890000
1!
1(
b0011 "
b0011 )
b1100 #
b1100 *
#2900000
0!
0(
#2910000
1!
1(
b1001 "
b1001 )
b0011 #
b0011 *
b011 .
b011 %
#2920000
0!
0(
#2930000
1!
1(
b0111 "
b0111 )
b1010 #
b1010 *
0$
0+
b111 .
b111 %
#2940000
0!
0(
#2950000
1!
1(
b1011 "
b1011 )
b0001 #
b0001 *
b011 .
b011 %
#2960000
0!
0(
#2970000
1!
1(
b0000 "
b0000 )
b0100 #
b0100 *
1$
1+
0,
0&
b100 .
b100 %
b000 .
b000 %
#2980000
0!
0(
#2990000
1!
1(
b1010 #
b1010 *
0$
0+
#3000000
0!
0(
#3010000
1!
1(
b1001 "
b1001 )
1,
1&
b001 .
b001 %
b011 .
b011 %
#3020000
0!
0(
#3030000
1!
1(
b0011 "
b0011 )
b0010 #
b0010 *
1$
1+
0,
0&
#3040000
0!
0(
#3050000
1!
1(
b0010 "
b0010 )
b1100 #
b1100 *
0$
0+
1,
1&
b110 .
b110 %
#3060000
0!
0(
#3070000
1!
1(
b0111 "
b0111 )
b0001 #
b0001 *
0,
0&
b111 .
b111 %
#3080000
0!
0(
#3090000
1!
1(
b0101 "
b0101 )
b0000 #
b0000 *
b101 .
b101 %
#3100000
0!
0(
#3110000
1!
1(
b1000 "
b1000 )
b1100 #
b1100 *
1,
1&
b000 .
b000 %
#3120000
0!
0(
#3130000
1!
1(
b0110 "
b0110 )
b1000 #
b1000 *
b110 .
b110 %
#3140000
0!
0(
#3150000
1!
1(
b1101 "
b1101 )
b0111 #
b0111 *
b101 .
b101 %
b111 .
b111 %
#3160000
0!
0(
#3170000
1!
1(
b0100 "
b0100 )
b0101 #
b0101 *
1$
1+
0,
0&
b101 .
b101 %
#3180000
0!
0(
#3190000
1!
1(
b1000 "
b1000 )
b1011 #
b1011 *
1,
1&
b011 .
b011 %
#3200000
0!
0(
#3210000
1!
1(
b1111 "
b1111 )
b0000 #
b0000 *
b111 .
b111 %
#3220000
0!
0(
#3230000
1!
1(
b0110 "
b0110 )
b1110 #
b1110 *
b110 .
b110 %
#3240000
0!
0(
#3250000
1!
1(
b1001 "
b1001 )
b1010 #
b1010 *
0$
0+
b001 .
b001 %
b011 .
b011 %
#3260000
0!
0(
#3270000
1!
1(
b1110 "
b1110 )
b1011 #
b1011 *
1$
1+
b111 .
b111 %
#3280000
0!
0(
#3290000
1!
1(
b0010 "
b0010 )
b1010 #
b1010 *
0,
0&
b010 .
b010 %
#3300000
0!
0(
#3310000
1!
1(
b1101 "
b1101 )
b1111 #
b1111 *
1-
1'
1,
1&
b101 .
b101 %
b111 .
b111 %
#3320000
0!
0(
#3330000
1!
1(
b1100 "
b1100 )
b1010 #
b1010 *
0-
0'
0$
0+
b110 .
b110 %
b100 .
b100 %
#3340000
0!
0(
#3350000
1!
1(
b1111 "
b1111 )
b0101 #
b0101 *
1$
1+
b111 .
b111 %
#3360000
0!
0(
#3370000
1!
1(
b0111 "
b0111 )
b1011 #
b1011 *
#3380000
0!
0(
#3390000
1!
1(
b1110 "
b1110 )
b1111 #
b1111 *
1-
1'
0$
0+
b110 .
b110 %
#3400000
0!
0(
#3410000
1!
1(
b0100 "
b0100 )
b100 .
b100 %
#3420000
0!
0(
#3430000
1!
1(
b0101 "
b0101 )
b0111 #
b0111 *
0-
0'
1$
1+
0,
0&
b101 .
b101 %
b111 .
b111 %
#3440000
0!
0(
#3450000
1!
1(
b1000 "
b1000 )
b0011 #
b0011 *
0$
0+
1,
1&
b010 .
b010 %
b000 .
b000 %
#3460000
0!
0(
#3470000
1!
1(
b0011 "
b0011 )
b0101 #
b0101 *
1$
1+
0,
0&
b011 .
b011 %
b111 .
b111 %
#3480000
0!
0(
#3490000
1!
1(
b1110 "
b1110 )
b1010 #
b1010 *
0$
0+
1,
1&
b110 .
b110 %
#3500000
0!
0(
#3510000
1!
1(
b0100 "
b0100 )
b1000 #
b1000 *
b100 .
b100 %
#3520000
0!
0(
#3530000
1!
1(
b0011 "
b0011 )
b0010 #
b0010 *
0,
0&
b011 .
b011 %
#3540000
0!
0(
#3550000
1!
1(
b1001 "
b1001 )
b0011 #
b0011 *
1,
1&
#3560000
0!
0(
#3570000
1!
1(
b1110 "
b1110 )
b0000 #
b0000 *
1$
1+
b110 .
b110 %
#3580000
0!
0(
#3590000
1!
1(
b0000 "
b0000 )
b0010 #
b0010 *
0,
0&
b000 .
b000 %
#3600000
0!
0(
#3610000
1!
1(
b0100 "
b0100 )
b1000 #
b1000 *
1,
1&
b100 .
b100 %
#3620000
0!
0(
#3630000
1!
1(
b0010 "
b0010 )
b0010 #
b0010 *
0$
0+
0,
0&
b010 .
b010 %
#3640000
0!
0(
#3650000
1!
1(
b0111 "
b0111 )
b1000 #
b1000 *
1,
1&
b111 .
b111 %
#3660000
0!
0(
#3670000
1!
1(
b1111 "
b1111 )
b0101 #
b0101 *
#3680000
0!
0(
#3690000
1!
1(
b0100 "
b0100 )
b1100 #
b1100 *
b100 .
b100 %
#3700000
0!
0(
#3710000
1!
1(
b1011 "
b1011 )
1$
1+
b011 .
b011 %
b111 .
b111 %
#3720000
0!
0(
#3730000
1!
1(
b0000 "
b0000 )
b0000 #
b0000 *
0,
0&
b000 .
b000 %
#3740000
0!
0(
#3750000
1!
1(
b1010 "
b1010 )
b1001 #
b1001 *
0$
0+
1,
1&
b010 .
b010 %
#3760000
0!
0(
#3770000
1!
1(
b1011 "
b1011 )
b1101 #
b1101 *
1$
1+
b111 .
b111 %
#3780000
0!
0(
#3790000
1!
1(
b0001 "
b0001 )
b1100 #
b1100 *
0,
0&
b101 .
b101 %
b001 .
b001 %
#3800000
0!
0(
#3810000
1!
1(
b1010 "
b1010 )
b0010 #
b0010 *
1,
1&
b010 .
b010 %
#3820000
0!
0(
#3830000
1!
1(
b0011 "
b0011 )
b1000 #
b1000 *
0,
0&
b011 .
b011 %
#3840000
0!
0(
#3850000
1!
1(
b1001 "
b1001 )
b1101 #
b1101 *
0$
0+
1,
1&
b101 .
b101 %
b001 .
b001 %
#3860000
0!
0(
#3870000
1!
1(
b0001 "
b0001 )
b1001 #
b1001 *
1$
1+
0,
0&
#3880000
0!
0(
#3890000
1!
1(
b0010 "
b0010 )
b0000 #
b0000 *
b010 .
b010 %
#3900000
0!
0(
#3910000
1!
1(
b0011 #
b0011 *
b011 .
b011 %
#3920000
0!
0(
#3930000
1!
1(
b0101 "
b0101 )
b1011 #
b1011 *
0$
0+
1,
1&
b111 .
b111 %
#3940000
0!
0(
#3950000
1!
1(
b0001 "
b0001 )
b0001 #
b0001 *
1$
1+
0,
0&
b001 .
b001 %
#3960000
0!
0(
#3970000
1!
1(
b1010 "
b1010 )
b1011 #
b1011 *
1,
1&
b011 .
b011 %
#3980000
0!
0(
#3990000
1!
1(
b1111 "
b1111 )
b0011 #
b0011 *
0$
0+
b111 .
b111 %
#4000000
0!
0(
#4010000
1!
1(
b0010 "
b0010 )
b0110 #
b0110 *
1$
1+
0,
0&
b110 .
b110 %
#4020000
0!
0(
#4030000
1!
1(
b0011 "
b0011 )
b1001 #
b1001 *
b011 .
b011 %
#4040000
0!
0(
#4050000
1!
1(
b1001 "
b1001 )
0$
0+
1,
1&
b001 .
b001 %
#4060000
0!
0(
#4070000
1!
1(
b0001 "
b0001 )
b0101 #
b0101 *
1$
1+
0,
0&
#4080000
0!
0(
#4090000
1!
1(
b0000 "
b0000 )
b0001 #
b0001 *
#4100000
0!
0(
#4110000
1!
1(
b0011 "
b0011 )
b0011 #
b0011 *
b011 .
b011 %
#4120000
0!
0(
#4130000
1!
1(
b1100 "
b1100 )
b0001 #
b0001 *
1,
1&
b101 .
b101 %
#4140000
0!
0(
#4150000
1!
1(
b0100 "
b0100 )
b1111 #
b1111 *
1-
1'
0$
0+
b110 .
b110 %
b100 .
b100 %
#4160000
0!
0(
#4170000
1!
1(
b1100 "
b1100 )
b1101 #
b1101 *
0-
0'
#4180000
0!
0(
#4190000
1!
1(
b0001 "
b0001 )
b0101 #
b0101 *
0,
0&
b001 .
b001 %
#4200000
0!
0(
#4210000
1!
1(
b0011 "
b0011 )
b0001 #
b0001 *
1$
1+
b011 .
b011 %
#4220000
0!
0(
#4230000
1!
1(
b1011 "
b1011 )
b0100 #
b0100 *
0$
0+
1,
1&
b111 .
b111 %
#4240000
0!
0(
#4250000
1!
1(
b1111 #
b1111 *
1-
1'
1$
1+
#4260000
0!
0(
#4270000
1!
1(
b1100 "
b1100 )
b0110 #
b0110 *
0-
0'
0$
0+
b110 .
b110 %
b100 .
b100 %
#4280000
0!
0(
#4290000
1!
1(
b0111 "
b0111 )
0,
0&
b111 .
b111 %
#4300000
0!
0(
#4310000
1!
1(
b1001 "
b1001 )
b0001 #
b0001 *
1,
1&
b001 .
b001 %
#4320000
0!
0(
#4330000
1!
1(
b1100 "
b1100 )
1$
1+
b101 .
b101 %
#4340000
0!
0(
#4350000
1!
1(
b0111 "
b0111 )
b0000 #
b0000 *
0$
0+
0,
0&
b111 .
b111 %
#4360000
0!
0(
#4370000
1!
1(
b0101 #
b0101 *
#4380000
0!
0(
#4390000
1!
1(
b0101 "
b0101 )
b0001 #
b0001 *
b101 .
b101 %
#4400000
0!
0(
#4410000
1!
1(
b1011 "
b1011 )
b0100 #
b0100 *
1,
1&
b011 .
b011 %
b111 .
b111 %
#4420000
0!
0(
#4430000
1!
1(
b1000 "
b1000 )
b1010 #
b1010 *
1$
1+
b010 .
b010 %
b000 .
b000 %
#4440000
0!
0(
#4450000
1!
1(
b0000 "
b0000 )
b0011 #
b0011 *
0$
0+
0,
0&
#4460000
0!
0(
#4470000
1!
1(
1$
1+
b001 .
b001 %
b011 .
b011 %
#4480000
0!
0(
#4490000
1!
1(
b0010 "
b0010 )
b1001 #
b1001 *
0$
0+
b010 .
b010 %
#4500000
0!
0(
#4510000
1!
1(
b1100 "
b1100 )
b0010 #
b0010 *
1,
1&
b100 .
b100 %
#4520000
0!
0(
#4530000
1!
1(
b0010 "
b0010 )
b0001 #
b0001 *
0,
0&
b010 .
b010 %
#4540000
0!
0(
#4550000
1!
1(
b0011 "
b0011 )
b1000 #
b1000 *
b011 .
b011 %
#4560000
0!
0(
#4570000
1!
1(
b0001 "
b0001 )
b1100 #
b1100 *
b101 .
b101 %
b001 .
b001 %
#4580000
0!
0(
#4590000
1!
1(
b1111 "
b1111 )
b0000 #
b0000 *
1,
1&
b111 .
b111 %
#4600000
0!
0(
#4610000
1!
1(
b0101 "
b0101 )
b0111 #
b0111 *
0,
0&
#4620000
0!
0(
#4630000
1!
1(
b1111 "
b1111 )
b1101 #
b1101 *
1,
1&
#4640000
0!
0(
#4650000
1!
1(
b0101 "
b0101 )
b0100 #
b0100 *
0,
0&
b101 .
b101 %
#4660000
0!
0(
#4670000
1!
1(
b1101 "
b1101 )
b0011 #
b0011 *
1,
1&
b111 .
b111 %
#4680000
0!
0(
