16x1 MUX/dump.vcd
$date
	Mon Jan  2 20:49:47 2023
$end

$version
	Synopsys VCS version S-2021.09
$end

$timescale
	1ns
$end

$comment Csum: 1 99ea7d6aa2b9b2f1 $end


$scope module $unit $end
$upscope $end


$scope module testbench $end
$var reg 1 ! clk $end

$scope begin unnamed$$_vcs_2 $end
$upscope $end


$scope begin unnamed$$_vcs_0 $end
$upscope $end


$scope begin unnamed$$_vcs_1 $end
$upscope $end


$scope module _if $end
$var reg 4 " sel [3:0] $end
$var reg 16 # in [15:0] $end
$var reg 1 $ rstn $end
$var reg 1 % out $end
$var reg 1 & clk $end
$upscope $end


$scope module u0 $end
$var wire 1 ' sel [3] $end
$var wire 1 ( sel [2] $end
$var wire 1 ) sel [1] $end
$var wire 1 * sel [0] $end
$var wire 16 + in [15:0] $end
$var wire 1 , rstn $end
$var reg 1 - out $end
$upscope $end

$upscope $end


$scope module uvm_pkg $end
$var reg 32 . UVM_UNBOUNDED_CONNECTIONS [31:0] $end
$var reg 1 / uvm_start_uvm_declarations $end
$var time 64 0 setting_offset $end
$var reg 32 1 setting_verbosity [31:0] $end
$var reg 1 2 is_verdi_set_verbosity_called $end
$var reg 32 3 uvm_global_random_seed [31:0] $end
$upscope $end

$enddefinitions $end

#0
$dumpvars
02
1/
bxxxxxxxxxxxxxxxxxxxxxxxxxxxxxxxxxxxxxxxxxxxxxxxxxxxxxxxxxxxxxxxx 0
b11111111111111111111111111111111 .
b00000000000000000000000000000000 1
b01000010000001111100110001000111 3
0!
bxxxxxxxxxxxxxxxx #
bxxxx "
x-
bxxxxxxxxxxxxxxxx +
x,
0&
x%
x$
x'
x(
x)
x*
$end
#10
1!
1&
b1110 "
0*
1)
1(
1'
b1101010000011101 #
b1101010000011101 +
0$
0,
0-
0%
#20
0!
0&
#30
1!
1&
b0101 "
1*
0)
0'
b1111110110010001 #
b1111110110010001 +
1$
1,
1-
1%
#40
0!
0&
#50
1!
1&
b0110 "
0*
1)
b1000100110001011 #
b1000100110001011 +
#60
0!
0&
#70
1!
1&
b1101 "
1*
0)
1'
b1011000100001000 #
b1011000100001000 +
0-
0%
#80
0!
0&
#90
1!
1&
b0110 "
0*
1)
0'
b1110101101010010 #
b1110101101010010 +
#100
0!
0&
#110
1!
1&
b1101 "
1*
0)
1'
b1011111010001100 #
b1011111010001100 +
#120
0!
0&
#130
1!
1&
b0111 "
1)
0'
b1010010111000111 #
b1010010111000111 +
1-
1%
#140
0!
0&
#150
1!
1&
b0100 "
0*
0)
b1111010011010101 #
b1111010011010101 +
#160
0!
0&
#170
1!
1&
b1010 "
1)
0(
1'
b1011011000111010 #
b1011011000111010 +
0-
0%
#180
0!
0&
#190
1!
1&
b0111 "
1*
1(
0'
b1000101100100011 #
b1000101100100011 +
1-
1%
#200
0!
0&
#210
1!
1&
b0001 "
0)
0(
b1010010110010101 #
b1010010110010101 +
#220
0!
0&
#230
1!
1&
b0110 "
0*
1)
1(
b1101001000101000 #
b1101001000101000 +
0-
0%
#240
0!
0&
#250
1!
1&
b1010 "
0(
1'
b1111100111010111 #
b1111100111010111 +
1-
1%
#260
0!
0&
#270
1!
1&
b1111000110011100 #
b1111000110011100 +
0-
0%
#280
0!
0&
#290
1!
1&
b0111 "
1*
1(
0'
b1110011100001010 #
b1110011100001010 +
#300
0!
0&
#310
1!
1&
b0010 "
0*
0(
b1001110001010000 #
b1001110001010000 +
#320
0!
0&
#330
1!
1&
b1111 "
1*
1(
1'
b1111110010100111 #
b1111110010100111 +
#340
0!
0&
#350
1!
1&
b1100 "
0*
0)
b1000011010010111 #
b1000011010010111 +
0$
0,
#360
0!
0&
#370
1!
1&
b1111 "
1*
1)
b1000010101011001 #
b1000010101011001 +
#380
0!
0&
#390
1!
1&
b1110 "
0*
b1100101000010111 #
b1100101000010111 +
1$
1,
#400
0!
0&
#410
1!
1&
b0001 "
1*
0)
0(
0'
b1100001110000100 #
b1100001110000100 +
#420
0!
0&
#430
1!
1&
b0000 "
0*
b1101010111000011 #
b1101010111000011 +
1-
1%
#440
0!
0&
#450
1!
1&
b1000 "
1'
b1011011101001011 #
b1011011101001011 +
#460
0!
0&
#470
1!
1&
b1001 "
1*
b1001101111010100 #
b1001101111010100 +
0-
0%
#480
0!
0&
#490
1!
1&
b1011 "
1)
b1111001100000101 #
b1111001100000101 +
1-
1%
#500
0!
0&
#510
1!
1&
b1110 "
0*
1(
b1000011000110111 #
b1000011000110111 +
0-
0%
#520
0!
0&
#530
1!
1&
b0111 "
1*
0'
b1101110111101001 #
b1101110111101001 +
1-
1%
#540
0!
0&
#550
1!
1&
b0110 "
0*
b1111011110110100 #
b1111011110110100 +
0-
0%
#560
0!
0&
#570
1!
1&
b0001 "
1*
0)
0(
b1010001100011110 #
b1010001100011110 +
#580
0!
0&
#590
1!
1&
b0011 "
1)
b1101000111110010 #
b1101000111110010 +
0$
0,
#600
0!
0&
#610
1!
1&
b1101011011110010 #
b1101011011110010 +
#620
0!
0&
#630
1!
1&
b1011 "
1'
b1001000010000110 #
b1001000010000110 +
1$
1,
#640
0!
0&
#650
1!
1&
b1001 "
0)
b1111000001101010 #
b1111000001101010 +
#660
0!
0&
#670
1!
1&
b1000 "
0*
b1100100000001000 #
b1100100000001000 +
#680
0!
0&
#690
1!
1&
b1101 "
1*
1(
b1110001101000000 #
b1110001101000000 +
#700
0!
0&
#710
1!
1&
b1000 "
0*
0(
b1101000001100000 #
b1101000001100000 +
#720
0!
0&
#730
1!
1&
b1000101001000000 #
b1000101001000000 +
#740
0!
0&
#750
1!
1&
b0101 "
1*
1(
0'
b1000000011101011 #
b1000000011101011 +
0$
0,
#760
0!
0&
#770
1!
1&
b0010 "
0*
1)
0(
b1110001011001100 #
b1110001011001100 +
1$
1,
#780
0!
0&
#790
1!
1&
b1110 "
1(
1'
b1001010010001000 #
b1001010010001000 +
#800
0!
0&
#810
1!
1&
b1100 "
0)
b1001111001111101 #
b1001111001111101 +
1-
1%
#820
0!
0&
#830
1!
1&
b0110 "
1)
0'
b1111000101000110 #
b1111000101000110 +
0-
0%
#840
0!
0&
#850
1!
1&
b0101 "
1*
0)
b1001111011111000 #
b1001111011111000 +
#860
0!
0&
#870
1!
1&
b0010 "
0*
1)
0(
b1110111100100000 #
b1110111100100000 +
#880
0!
0&
#890
1!
1&
b1011 "
1*
1'
b1111001110110101 #
b1111001110110101 +
1-
1%
#900
0!
0&
#910
1!
1&
b0101 "
0)
1(
0'
b1111000001000100 #
b1111000001000100 +
0-
0%
#920
0!
0&
#930
1!
1&
b0001 "
0(
b1011000111100111 #
b1011000111100111 +
1-
1%
#940
0!
0&
#950
1!
1&
b0111 "
1)
1(
b1110111010110100 #
b1110111010110100 +
0-
0%
#960
0!
0&
#970
1!
1&
b0010 "
0*
0(
b1101001011110110 #
b1101001011110110 +
#980
0!
0&
#990
1!
1&
b0110 "
1(
b1001111100100010 #
b1001111100100010 +
#1000
0!
0&
#1010
1!
1&
b0101 "
1*
0)
b1111000011110100 #
b1111000011110100 +
0$
0,
#1020
0!
0&
#1030
1!
1&
b0110 "
0*
1)
b1010110000001101 #
b1010110000001101 +
1$
1,
1-
1%
#1040
0!
0&
#1050
1!
1&
b0000 "
0)
0(
b1001110001000000 #
b1001110001000000 +
0$
0,
0-
0%
#1060
0!
0&
#1070
1!
1&
b0110 "
1)
1(
b1001001101001100 #
b1001001101001100 +
1$
1,
#1080
0!
0&
#1090
1!
1&
b0100 "
0)
b1101010100100010 #
b1101010100100010 +
#1100
0!
0&
#1110
1!
1&
b1000 "
0(
1'
b1111110001001110 #
b1111110001001110 +
#1120
0!
0&
#1130
1!
1&
b0110 "
1)
1(
0'
b1100010101010001 #
b1100010101010001 +
1-
1%
#1140
0!
0&
#1150
1!
1&
b1011 "
1*
0(
1'
b1110100000011010 #
b1110100000011010 +
0-
0%
#1160
0!
0&
#1170
1!
1&
b0101 "
0)
1(
0'
b1101101100110000 #
b1101101100110000 +
#1180
0!
0&
#1190
1!
1&
b1110 "
0*
1)
1'
b1011011011111011 #
b1011011011111011 +
#1200
0!
0&
#1210
1!
1&
b1111011101100010 #
b1111011101100010 +
#1220
0!
0&
#1230
1!
1&
b0000 "
0)
0(
0'
b1100101011011110 #
b1100101011011110 +
#1240
0!
0&
#1250
1!
1&
b1110 "
1)
1(
1'
b1111010110111001 #
b1111010110111001 +
#1260
0!
0&
#1270
1!
1&
b1000001000010001 #
b1000001000010001 +
#1280
0!
0&
#1290
1!
1&
b1100 "
0)
b1111011001111111 #
b1111011001111111 +
1-
1%
#1300
0!
0&
#1310
1!
1&
b0011 "
1*
1)
0(
0'
b1100110011110010 #
b1100110011110010 +
0-
0%
#1320
0!
0&
#1330
1!
1&
b1001 "
0)
1'
b1001110000111100 #
b1001110000111100 +
#1340
0!
0&
#1350
1!
1&
b1100 "
0*
1(
b1110101100111000 #
b1110101100111000 +
#1360
0!
0&
#1370
1!
1&
b1000 "
0(
b1010110000101101 #
b1010110000101101 +
1-
1%
#1380
0!
0&
#1390
1!
1&
b0110 "
1)
1(
0'
b1111010001100001 #
b1111010001100001 +
#1400
0!
0&
#1410
1!
1&
b0011 "
1*
0(
b1011100000010100 #
b1011100000010100 +
0-
0%
#1420
0!
0&
#1430
1!
1&
b1001 "
0)
1'
b1011100110101001 #
b1011100110101001 +
1-
1%
#1440
0!
0&
#1450
1!
1&
b1111 "
1)
1(
b1000010001100010 #
b1000010001100010 +
0$
0,
0-
0%
#1460
0!
0&
#1470
1!
1&
b0111 "
0'
b1001101100110011 #
b1001101100110011 +
1$
1,
1-
1%
#1480
0!
0&
#1490
1!
1&
b1011 "
0(
1'
b1001100000101100 #
b1001100000101100 +
0-
0%
#1500
0!
0&
#1510
1!
1&
b0010 "
0*
0'
b1010010000100101 #
b1010010000100101 +
1-
1%
#1520
0!
0&
#1530
1!
1&
b1010 "
1'
b1011101110101010 #
b1011101110101010 +
0-
0%
#1540
0!
0&
#1550
1!
1&
b1101 "
1*
0)
1(
b1101111111000100 #
b1101111111000100 +
0$
0,
#1560
0!
0&
#1570
1!
1&
b1001 "
0(
b1101000001111000 #
b1101000001111000 +
1$
1,
#1580
0!
0&
#1590
1!
1&
b0010 "
0*
1)
0'
b1100010010000010 #
b1100010010000010 +
#1600
0!
0&
#1610
1!
1&
b0111 "
1*
1(
b1100100111000110 #
b1100100111000110 +
#1620
0!
0&
#1630
1!
1&
b1101 "
0)
1'
b1010011011010001 #
b1010011011010001 +
1-
1%
#1640
0!
0&
#1650
1!
1&
b1110 "
0*
1)
b1110001111101110 #
b1110001111101110 +
0-
0%
#1660
0!
0&
#1670
1!
1&
b0101 "
1*
0)
0'
b1100111100001011 #
b1100111100001011 +
1-
1%
#1680
0!
0&
#1690
1!
1&
b1000100001100011 #
b1000100001100011 +
#1700
0!
0&
#1710
1!
1&
b0110 "
0*
1)
b1001001100001111 #
b1001001100001111 +
#1720
0!
0&
#1730
1!
1&
b1000 "
0)
0(
1'
b1010111111100000 #
b1010111111100000 +
0-
0%
#1740
0!
0&
#1750
1!
1&
b0111 "
1*
1)
1(
0'
b1011110100100110 #
b1011110100100110 +
#1760
0!
0&
#1770
1!
1&
b0010 "
0*
0(
b1000111100011110 #
b1000111100011110 +
0$
0,
#1780
0!
0&
#1790
1!
1&
b0100 "
0)
1(
b1001100011000110 #
b1001100011000110 +
1$
1,
#1800
0!
0&
#1810
1!
1&
b0111 "
1*
1)
b1000101001101011 #
b1000101001101011 +
1-
1%
#1820
0!
0&
#1830
1!
1&
b1000 "
0*
0)
0(
1'
b1001010100000110 #
b1001010100000110 +
0-
0%
#1840
0!
0&
#1850
1!
1&
b0110 "
1)
1(
0'
b1010011011101001 #
b1010011011101001 +
1-
1%
#1860
0!
0&
#1870
1!
1&
b0010 "
0(
b1110111101111110 #
b1110111101111110 +
0-
0%
#1880
0!
0&
#1890
1!
1&
b1001 "
1*
0)
1'
b1100010000000101 #
b1100010000000101 +
1-
1%
#1900
0!
0&
#1910
1!
1&
b0100 "
0*
1(
0'
b1100010111001000 #
b1100010111001000 +
0-
0%
#1920
0!
0&
#1930
1!
1&
b1011 "
1*
1)
0(
1'
b1101101100001010 #
b1101101100001010 +
#1940
0!
0&
#1950
1!
1&
b0011 "
0'
b1100110001001111 #
b1100110001001111 +
1-
1%
#1960
0!
0&
#1970
1!
1&
b1110 "
0*
1(
1'
b1111001100000010 #
b1111001100000010 +
0-
0%
#1980
0!
0&
#1990
1!
1&
b1100 "
0)
b1000011100100101 #
b1000011100100101 +
1-
1%
#2000
0!
0&
#2010
1!
1&
b1010 "
1)
0(
b1011000101110010 #
b1011000101110010 +
0-
0%
#2020
0!
0&
#2030
1!
1&
b1110 "
1(
b1100100101001101 #
b1100100101001101 +
#2040
0!
0&
#2050
1!
1&
b1111 "
1*
b1110000001101110 #
b1110000001101110 +
#2060
0!
0&
#2070
1!
1&
b1100 "
0*
0)
b1001110010001010 #
b1001110010001010 +
#2080
0!
0&
#2090
1!
1&
b1111 "
1*
1)
b1000101001011111 #
b1000101001011111 +
#2100
0!
0&
#2110
1!
1&
b0000 "
0*
0)
0(
0'
b1110000101100011 #
b1110000101100011 +
1-
1%
#2120
0!
0&
#2130
1!
1&
b1101 "
1*
1(
1'
b1000100001101100 #
b1000100001101100 +
0-
0%
#2140
0!
0&
#2150
1!
1&
b0001 "
0(
0'
b1001111011010011 #
b1001111011010011 +
1-
1%
#2160
0!
0&
#2170
1!
1&
b1001 "
1'
b1011001100101101 #
b1011001100101101 +
#2180
0!
0&
#2190
1!
1&
b1000 "
0*
b1110101111111000 #
b1110101111111000 +
0-
0%
#2200
0!
0&
#2210
1!
1&
b0001 "
1*
0'
b1000100010000001 #
b1000100010000001 +
1-
1%
#2220
0!
0&
#2230
1!
1&
b1011 "
1)
1'
b1011110010000011 #
b1011110010000011 +
#2240
0!
0&
#2250
1!
1&
b0010 "
0*
0'
b1001011001100101 #
b1001011001100101 +
#2260
0!
0&
#2270
1!
1&
b1000000110010001 #
b1000000110010001 +
#2280
0!
0&
#2290
1!
1&
b0001 "
1*
0)
b1101011010111111 #
b1101011010111111 +
#2300
0!
0&
#2310
1!
1&
b1010 "
0*
1)
1'
b1110100000000110 #
b1110100000000110 +
0$
0,
0-
0%
#2320
0!
0&
#2330
1!
1&
b0111 "
1*
1(
0'
b1110110101101000 #
b1110110101101000 +
1$
1,
#2340
0!
0&
#2350
1!
1&
b0000 "
0*
0)
0(
b1101110100111001 #
b1101110100111001 +
1-
1%
#2360
0!
0&
#2370
1!
1&
b1110 "
1)
1(
1'
b1010000000101110 #
b1010000000101110 +
0-
0%
#2380
0!
0&
#2390
1!
1&
b0011 "
1*
0(
0'
b1001010010011110 #
b1001010010011110 +
#2400
0!
0&
#2410
1!
1&
b0010 "
0*
b1101100100100100 #
b1101100100100100 +
#2420
0!
0&
#2430
1!
1&
b1000 "
0)
1'
b1111001100011101 #
b1111001100011101 +
1-
1%
#2440
0!
0&
#2450
1!
1&
b1001 "
1*
b1000101001100000 #
b1000101001100000 +
0-
0%
#2460
0!
0&
#2470
1!
1&
b0010 "
0*
1)
0'
b1011100111101000 #
b1011100111101000 +
#2480
0!
0&
#2490
1!
1&
b1111010011101011 #
b1111010011101011 +
1-
1%
#2500
0!
0&
#2510
1!
1&
b0111 "
1*
1(
b1010000011001100 #
b1010000011001100 +
0-
0%
#2520
0!
0&
#2530
1!
1&
b0001 "
0)
0(
b1011001000010001 #
b1011001000010001 +
1-
1%
#2540
0!
0&
#2550
1!
1&
b1010010100101000 #
b1010010100101000 +
0-
0%
#2560
0!
0&
#2570
1!
1&
b0000 "
0*
b1001110001101111 #
b1001110001101111 +
1-
1%
#2580
0!
0&
#2590
1!
1&
b1011 "
1*
1)
1'
b1010011110010110 #
b1010011110010110 +
0$
0,
0-
0%
#2600
0!
0&
#2610
1!
1&
b1110 "
0*
1(
b1111001101111000 #
b1111001101111000 +
1$
1,
#2620
0!
0&
#2630
1!
1&
b1000 "
0)
0(
b1000111010000100 #
b1000111010000100 +
#2640
0!
0&
#2650
1!
1&
b0111 "
1*
1)
1(
0'
b1101011010111010 #
b1101011010111010 +
#2660
0!
0&
#2670
1!
1&
b0011 "
0(
b1001101000000101 #
b1001101000000101 +
0$
0,
#2680
0!
0&
#2690
1!
1&
b1111 "
1(
1'
b1010000110100110 #
b1010000110100110 +
1$
1,
#2700
0!
0&
#2710
1!
1&
b1111001110010111 #
b1111001110010111 +
#2720
0!
0&
#2730
1!
1&
b1001110111101011 #
b1001110111101011 +
#2740
0!
0&
#2750
1!
1&
b0011 "
0(
0'
b1110111011100110 #
b1110111011100110 +
#2760
0!
0&
#2770
1!
1&
b1101 "
0)
1(
1'
b1101010001100010 #
b1101010001100010 +
#2780
0!
0&
#2790
1!
1&
b0110 "
0*
1)
0'
b1101111110001011 #
b1101111110001011 +
1-
1%
#2800
0!
0&
#2810
1!
1&
b1111 "
1*
1'
b1110100110001011 #
b1110100110001011 +
0-
0%
#2820
0!
0&
#2830
1!
1&
b0010 "
0*
0(
0'
b1000001011011100 #
b1000001011011100 +
#2840
0!
0&
#2850
1!
1&
b0100 "
0)
1(
b1001000000011011 #
b1001000000011011 +
1-
1%
#2860
0!
0&
#2870
1!
1&
b1010 "
1)
0(
1'
b1000110001011001 #
b1000110001011001 +
#2880
0!
0&
#2890
1!
1&
b0101 "
1*
0)
1(
0'
b1101001010010011 #
b1101001010010011 +
#2900
0!
0&
#2910
1!
1&
b1000 "
0*
0(
1'
b1101010100100100 #
b1101010100100100 +
0-
0%
#2920
0!
0&
#2930
1!
1&
b0010 "
1)
0'
b1111011100100111 #
b1111011100100111 +
1-
1%
#2940
0!
0&
#2950
1!
1&
b1000 "
0)
1'
b1001010001101010 #
b1001010001101010 +
0-
0%
#2960
0!
0&
#2970
1!
1&
b0101 "
1*
1(
0'
b1100001111010101 #
b1100001111010101 +
1-
1%
#2980
0!
0&
#2990
1!
1&
b0011 "
1)
0(
b1010110101111101 #
b1010110101111101 +
#3000
0!
0&
#3010
1!
1&
b1100 "
0*
0)
1(
1'
b1010010101010010 #
b1010010101010010 +
0-
0%
#3020
0!
0&
#3030
1!
1&
b0101 "
1*
0'
b1111110010001110 #
b1111110010001110 +
#3040
0!
0&
#3050
1!
1&
b1111 "
1)
1'
b1000001000110101 #
b1000001000110101 +
#3060
0!
0&
#3070
1!
1&
b0010 "
0*
0(
0'
b1101011011100010 #
b1101011011100010 +
#3080
0!
0&
#3090
1!
1&
b0000 "
0)
b1001001001010010 #
b1001001001010010 +
#3100
0!
0&
#3110
1!
1&
b1000 "
1'
b1010011001111011 #
b1010011001111011 +
1-
1%
#3120
0!
0&
#3130
1!
1&
b0001 "
1*
0'
b1010000110101001 #
b1010000110101001 +
#3140
0!
0&
#3150
1!
1&
b0110 "
0*
1)
1(
b1101000101011001 #
b1101000101011001 +
#3160
0!
0&
#3170
1!
1&
b0001 "
1*
0)
0(
b1110001101101101 #
b1110001101101101 +
#3180
0!
0&
#3190
1!
1&
b1001111010110011 #
b1001111010110011 +
#3200
0!
0&
#3210
1!
1&
b1101 "
1(
1'
b1001100100001100 #
b1001100100001100 +
0-
0%
#3220
0!
0&
#3230
1!
1&
b0111 "
1)
0'
b1100001110100000 #
b1100001110100000 +
#3240
0!
0&
#3250
1!
1&
b0011 "
0(
b1011010101100101 #
b1011010101100101 +
1-
1%
#3260
0!
0&
#3270
1!
1&
b1101 "
0)
1(
1'
b1101010100110111 #
b1101010100110111 +
#3280
0!
0&
#3290
1!
1&
b0000 "
0*
0(
0'
b1010001000110101 #
b1010001000110101 +
#3300
0!
0&
#3310
1!
1&
b1110 "
1)
1(
1'
b1011001011111101 #
b1011001011111101 +
0-
0%
#3320
0!
0&
#3330
1!
1&
b0000 "
0)
0(
0'
b1111100110011101 #
b1111100110011101 +
0$
0,
#3340
0!
0&
#3350
1!
1&
b1001111010011011 #
b1001111010011011 +
1$
1,
1-
1%
#3360
0!
0&
#3370
1!
1&
b1001 "
1*
1'
b1100101000001000 #
b1100101000001000 +
0-
0%
#3380
0!
0&
#3390
1!
1&
b1100 "
0*
1(
b1010001011001010 #
b1010001011001010 +
0$
0,
#3400
0!
0&
#3410
1!
1&
b1010 "
1)
0(
b1000101100101000 #
b1000101100101000 +
1$
1,
#3420
0!
0&
#3430
1!
1&
b0101 "
1*
0)
1(
0'
b1001010101011001 #
b1001010101011001 +
1-
1%
#3440
0!
0&
#3450
1!
1&
b0010 "
0*
1)
0(
b1100011101101001 #
b1100011101101001 +
#3460
0!
0&
#3470
1!
1&
b0111 "
1*
1(
b1101110010101000 #
b1101110010101000 +
0-
0%
#3480
0!
0&
#3490
1!
1&
b0001 "
0)
0(
b1010100100101011 #
b1010100100101011 +
1-
1%
#3500
0!
0&
#3510
1!
1&
b1010 "
0*
1)
1'
b1111010011011001 #
b1111010011011001 +
#3520
0!
0&
#3530
1!
1&
b0111 "
1*
1(
0'
b1101101011001000 #
b1101101011001000 +
0-
0%
#3540
0!
0&
#3550
1!
1&
b1101 "
0)
1'
b1011010010010100 #
b1011010010010100 +
#3560
0!
0&
#3570
1!
1&
b1110 "
0*
1)
b1111011110100101 #
b1111011110100101 +
#3580
0!
0&
#3590
1!
1&
b1000 "
0)
0(
b1110111101001101 #
b1110111101001101 +
0$
0,
#3600
0!
0&
#3610
1!
1&
b0001 "
1*
0'
b1010010111111110 #
b1010010111111110 +
1$
1,
#3620
0!
0&
#3630
1!
1&
b1100 "
0*
1(
1'
b1001111011010100 #
b1001111011010100 +
#3640
0!
0&
#3650
1!
1&
b1111 "
1*
1)
b1000101011011011 #
b1000101011011011 +
#3660
0!
0&
#3670
1!
1&
b0000 "
0*
0)
0(
0'
b1000001111000001 #
b1000001111000001 +
1-
1%
#3680
0!
0&
#3690
1!
1&
b1101010101110110 #
b1101010101110110 +
0-
0%
#3700
0!
0&
#3710
1!
1&
b0110 "
1)
1(
b1001000111000010 #
b1001000111000010 +
#3720
0!
0&
#3730
1!
1&
b1110 "
1'
b1001101101101010 #
b1001101101101010 +
#3740
0!
0&
#3750
1!
1&
b0110 "
0'
b1100001101011110 #
b1100001101011110 +
#3760
0!
0&
#3770
1!
1&
b1101000011011001 #
b1101000011011001 +
1-
1%
#3780
0!
0&
#3790
1!
1&
b0011 "
1*
0(
b1101000110101000 #
b1101000110101000 +
0-
0%
#3800
0!
0&
#3810
1!
1&
b0101 "
0)
1(
b1110111001000011 #
b1110111001000011 +
1-
1%
#3820
0!
0&
#3830
1!
1&
b0011 "
1)
0(
b1010101111101001 #
b1010101111101001 +
#3840
0!
0&
#3850
1!
1&
b1010 "
0*
1'
b1100011001010010 #
b1100011001010010 +
0-
0%
#3860
0!
0&
#3870
1!
1&
b0111 "
1*
1(
0'
b1101110110001110 #
b1101110110001110 +
#3880
0!
0&
#3890
1!
1&
b0000 "
0*
0)
0(
b1110100001110001 #
b1110100001110001 +
1-
1%
#3900
0!
0&
#3910
1!
1&
b1110 "
1)
1(
1'
b1101001000010011 #
b1101001000010011 +
0-
0%
#3920
0!
0&
#3930
1!
1&
b0011 "
1*
0(
0'
b1110000100000000 #
b1110000100000000 +
#3940
0!
0&
#3950
1!
1&
b0100 "
0*
0)
1(
b1101010100101110 #
b1101010100101110 +
#3960
0!
0&
#3970
1!
1&
b1110 "
1)
1'
b1101110101111000 #
b1101110101111000 +
#3980
0!
0&
#3990
1!
1&
b0011 "
1*
0(
0'
b1100101111000110 #
b1100101111000110 +
#4000
0!
0&
#4010
1!
1&
b1110 "
0*
1(
1'
b1000001110000111 #
b1000001110000111 +
#4020
0!
0&
#4030
1!
1&
b1001 "
1*
0)
0(
b1000110101101001 #
b1000110101101001 +
1-
1%
#4040
0!
0&
#4050
1!
1&
b1100 "
0*
1(
b1010111110100111 #
b1010111110100111 +
#4060
0!
0&
#4070
1!
1&
b0011 "
1*
1)
0(
0'
b1101000011111010 #
b1101000011111010 +
0-
0%
#4080
0!
0&
#4090
1!
1&
b0111 "
1(
b1011010101001010 #
b1011010101001010 +
#4100
0!
0&
#4110
1!
1&
b0001 "
0)
0(
b1001101110010100 #
b1001101110010100 +
#4120
0!
0&
#4130
1!
1&
b0101 "
1(
b1010111011000000 #
b1010111011000000 +
#4140
0!
0&
#4150
1!
1&
b0001 "
0(
b1000101000111110 #
b1000101000111110 +
#4160
0!
0&
#4170
1!
1&
b0010 "
0*
1)
b1110101101001110 #
b1110101101001110 +
#4180
0!
0&
#4190
1!
1&
b0000 "
0)
b1000110100011100 #
b1000110100011100 +
#4200
0!
0&
#4210
1!
1&
b1011 "
1*
1)
1'
b1110111100101011 #
b1110111100101011 +
1-
1%
#4220
0!
0&
#4230
1!
1&
b1000 "
0*
0)
b1000111100111111 #
b1000111100111111 +
0$
0,
0-
0%
#4240
0!
0&
#4250
1!
1&
b1001 "
1*
b1111001100000011 #
b1111001100000011 +
1$
1,
1-
1%
#4260
0!
0&
#4270
1!
1&
b0110 "
0*
1)
1(
0'
b1110000011110110 #
b1110000011110110 +
0-
0%
#4280
0!
0&
#4290
1!
1&
b0101 "
1*
0)
b1010101011011011 #
b1010101011011011 +
1-
1%
#4300
0!
0&
#4310
1!
1&
b0010 "
0*
1)
0(
b1101000100110101 #
b1101000100110101 +
#4320
0!
0&
#4330
1!
1&
b0011 "
1*
b1111011011100010 #
b1111011011100010 +
0-
0%
#4340
0!
0&
#4350
1!
1&
b1000 "
0*
0)
1'
b1011011100110100 #
b1011011100110100 +
#4360
0!
0&
#4370
1!
1&
b0011 "
1*
1)
0'
b1100001010010001 #
b1100001010010001 +
1-
1%
#4380
0!
0&
#4390
1!
1&
b0100 "
0*
0)
1(
b1100101010010010 #
b1100101010010010 +
0-
0%
#4400
0!
0&
#4410
1!
1&
b1001 "
1*
0(
1'
b1100001010100000 #
b1100001010100000 +
#4420
0!
0&
#4430
1!
1&
b0111 "
1)
1(
0'
b1101010011100011 #
b1101010011100011 +
1-
1%
#4440
0!
0&
#4450
1!
1&
b1010 "
0*
0(
1'
b1101000011001101 #
b1101000011001101 +
#4460
0!
0&
#4470
1!
1&
b1100 "
0)
1(
b1010110101010101 #
b1010110101010101 +
#4480
0!
0&
#4490
1!
1&
b0011 "
1*
1)
0(
0'
b1011110010111001 #
b1011110010111001 +
0$
0,
0-
0%
#4500
0!
0&
#4510
1!
1&
b1101 "
0)
1(
1'
b1010101011001111 #
b1010101011001111 +
1$
1,
1-
1%
#4520
0!
0&
#4530
1!
1&
b0010 "
0*
1)
0(
0'
b1000110110010000 #
b1000110110010000 +
0-
0%
#4540
0!
0&
#4550
1!
1&
b0110 "
1(
b1011010111001001 #
b1011010111001001 +
1-
1%
#4560
0!
0&
#4570
1!
1&
b0000 "
0)
0(
b1000010011101001 #
b1000010011101001 +
0$
0,
0-
0%
#4580
0!
0&
#4590
1!
1&
b1101 "
1*
1(
1'
b1110101111000110 #
b1110101111000110 +
1$
1,
#4600
0!
0&
#4610
1!
1&
b1001 "
0(
b1000011111101110 #
b1000011111101110 +
#4620
0!
0&
#4630
1!
1&
b1011 "
1)
b1111111111110100 #
b1111111111110100 +
#4640
0!
0&
#4650
1!
1&
b1111 "
1(
b1001010101100100 #
b1001010101100100 +
#4660
0!
0&
#4670
1!
1&
b1100 "
0*
0)
b1100000001000100 #
b1100000001000100 +
#4680
0!
0&
#4690
1!
1&
b1110 "
1)
b1010110011101100 #
b1010110011101100 +
#4700
0!
0&
#4710
1!
1&
b1000 "
0)
0(
b1111000111001110 #
b1111000111001110 +
#4720
0!
0&
#4730
1!
1&
b0011 "
1*
1)
0'
b1000110000011111 #
b1000110000011111 +
1-
1%
#4740
0!
0&
#4750
1!
1&
b1000 "
0*
0)
1'
b1101000100001110 #
b1101000100001110 +
0-
0%
#4760
0!
0&
#4770
1!
1&
b1101 "
1*
1(
b1101110110001110 #
b1101110110001110 +
#4780
0!
0&
#4790
1!
1&
b1100 "
0*
b1111010101101101 #
b1111010101101101 +
1-
1%
#4800
0!
0&
#4810
1!
1&
b0100 "
0'
b1010010011100001 #
b1010010011100001 +
#4820
0!
0&
#4830
1!
1&
b0110 "
1)
b1100100011101000 #
b1100100011101000 +
0-
0%
#4840
0!
0&
#4850
1!
1&
b1110 "
1'
b1001101100101110 #
b1001101100101110 +
#4860
0!
0&
#4870
1!
1&
b1010 "
0(
b1101100001001100 #
b1101100001001100 +
#4880
0!
0&
#4890
1!
1&
b1110 "
1(
b1000100111110001 #
b1000100111110001 +
#4900
0!
0&
#4910
1!
1&
b0001 "
1*
0)
0(
0'
b1111000000111001 #
b1111000000111001 +
1-
1%
#4920
0!
0&
#4930
1!
1&
b1111001010111000 #
b1111001010111000 +
0-
0%
#4940
0!
0&
#4950
1!
1&
b1010 "
0*
1)
1'
b1001010100101101 #
b1001010100101101 +
1-
1%
#4960
0!
0&
#4970
1!
1&
b0000 "
0)
0'
b1101010000011101 #
b1101010000011101 +
0$
0,
0-
0%
#4980
0!
0&
#4990
1!
1&
b1110 "
1)
1(
1'
b1111110010000101 #
b1111110010000101 +
1$
1,
#5000
0!
0&
#5010
1!
1&
b1011 "
1*
0(
b1110011000000000 #
b1110011000000000 +
#5020
0!
0&
#5030
1!
1&
b0111 "
1(
0'
b1010110011000110 #
b1010110011000110 +
#5040
0!
0&
#5050
1!
1&
b0010 "
0*
0(
b1111000001101110 #
b1111000001101110 +
#5060
0!
0&
#5070
1!
1&
b0101 "
1*
0)
1(
b1010000011001100 #
b1010000011001100 +
#5080
0!
0&
#5090
1!
1&
b1011000100011011 #
b1011000100011011 +
1-
1%
#5100
0!
0&
#5110
1!
1&
b1011 "
1)
0(
1'
b1010100011000101 #
b1010100011000101 +
0$
0,
0-
0%
#5120
0!
0&
