FIFO memory verification/DV Process - 2/dump.vcd
$date
	Sun Jan  8 21:41:37 2023
$end

$version
	Synopsys VCS version S-2021.09
$end

$timescale
	1ns
$end

$comment Csum: 1 a8b0840465b6ab4c $end


$scope module $unit $end
$upscope $end


$scope module tb $end
$var reg 1 ! clk $end

$scope begin unnamed$$_vcs_2 $end
$upscope $end


$scope begin unnamed$$_vcs_0 $end
$upscope $end


$scope begin unnamed$$_vcs_1 $end
$upscope $end


$scope module _if $end
$var reg 1 " clk $end
$var reg 1 # rstn $end
$var reg 1 $ enq $end
$var reg 1 % deq $end
$var reg 8 & din [7:0] $end
$var reg 8 ' dout [7:0] $end
$var reg 1 ( full $end
$var reg 1 ) empty $end
$upscope $end


$scope module u0 $end
$var wire 1 * clk $end
$var wire 1 + rstn $end
$var wire 1 , enq $end
$var wire 1 - deq $end
$var wire 8 . din [7:0] $end
$var reg 8 / dout [7:0] $end
$var reg 1 ( full $end
$var reg 1 ) empty $end
$var reg 4 0 wr_ptr [3:0] $end
$var reg 4 1 rd_ptr [3:0] $end
$upscope $end

$upscope $end


$scope module uvm_pkg $end
$var reg 32 2 UVM_UNBOUNDED_CONNECTIONS [31:0] $end
$var reg 1 3 uvm_start_uvm_declarations $end
$var time 64 4 setting_offset $end
$var reg 32 5 setting_verbosity [31:0] $end
$var reg 1 6 is_verdi_set_verbosity_called $end
$var reg 32 7 uvm_global_random_seed [31:0] $end
$upscope $end

$enddefinitions $end

#0
$dumpvars
06
13
bxxxxxxxxxxxxxxxxxxxxxxxxxxxxxxxxxxxxxxxxxxxxxxxxxxxxxxxxxxxxxxxx 4
b11111111111111111111111111111111 2
b00000000000000000000000000000000 5
b01000010000001111100110001000111 7
0!
bxxxxxxxx '
b00000000 &
bxxxxxxxx /
bxxxx 1
bxxxx 0
b00000000 .
0-
0,
0+
0"
0*
0%
0$
0#
0(
x)
$end
#10
1!
1*
1"
#20
0!
0*
0"
#30
1!
1*
1"
#40
0!
0*
0"
#50
1!
1*
1"
#60
0!
0*
0"
#70
1!
1*
1"
#80
0!
0*
0"
#90
1!
1*
1"
1#
1+
#100
0!
0*
0"
#110
1!
1*
1"
b0000 0
b0000 1
1)
#120
0!
0*
0"
#130
1!
1*
1"
#140
0!
0*
0"
#150
1!
1*
1"
#160
0!
0*
0"
#170
1!
1*
1"
#180
0!
0*
0"
#190
1!
1*
1"
#200
0!
0*
0"
#210
1!
1*
1"
#220
0!
0*
0"
#230
1!
1*
1"
#240
0!
0*
0"
#250
1!
1*
1"
#260
0!
0*
0"
#270
1!
1*
1"
#280
0!
0*
0"
#290
1!
1*
1"
#300
0!
0*
0"
#310
1!
1*
1"
1%
1-
b01010110 &
b01010110 .
#320
0!
0*
0"
#330
1!
1*
1"
b01010111 &
b01010111 .
#340
0!
0*
0"
#350
1!
1*
1"
1$
1,
0%
0-
b11001000 &
b11001000 .
0)
1(
#360
0!
0*
0"
#370
1!
1*
1"
0$
0,
1%
1-
b01111111 &
b01111111 .
1)
0(
#380
0!
0*
0"
#390
1!
1*
1"
b11111010 &
b11111010 .
#400
0!
0*
0"
#410
1!
1*
1"
1$
1,
0%
0-
b00010010 &
b00010010 .
0)
1(
#420
0!
0*
0"
#430
1!
1*
1"
b11010000 &
b11010000 .
#440
0!
0*
0"
#450
1!
1*
1"
0$
0,
1%
1-
b00011011 &
b00011011 .
1)
0(
#460
0!
0*
0"
#470
1!
1*
1"
b10100110 &
b10100110 .
#480
0!
0*
0"
#490
1!
1*
1"
1$
1,
0%
0-
b11001011 &
b11001011 .
0)
1(
#500
0!
0*
0"
#510
1!
1*
1"
b00010101 &
b00010101 .
#520
0!
0*
0"
#530
1!
1*
1"
0$
0,
1%
1-
b00011010 &
b00011010 .
1)
0(
#540
0!
0*
0"
#550
1!
1*
1"
1$
1,
0%
0-
b11001011 &
b11001011 .
0)
1(
#560
0!
0*
0"
#570
1!
1*
1"
0#
0+
b11111100 &
b11111100 .
#580
0!
0*
0"
#590
1!
1*
1"
b0001 0
1#
1+
0$
0,
1%
1-
b00001000 &
b00001000 .
0(
#600
0!
0*
0"
#610
1!
1*
1"
b0000 0
1$
1,
0%
0-
b01010100 &
b01010100 .
0)
1(
#620
0!
0*
0"
#630
1!
1*
1"
b10001100 &
b10001100 .
#640
0!
0*
0"
#650
1!
1*
1"
b10011110 &
b10011110 .
#660
0!
0*
0"
#670
1!
1*
1"
0$
0,
1%
1-
b01101011 &
b01101011 .
1)
0(
#680
0!
0*
0"
#690
1!
1*
1"
1$
1,
0%
0-
b10111100 &
b10111100 .
0)
1(
#700
0!
0*
0"
#710
1!
1*
1"
b01100110 &
b01100110 .
#720
0!
0*
0"
#730
1!
1*
1"
b00000111 &
b00000111 .
#740
0!
0*
0"
#750
1!
1*
1"
b01110011 &
b01110011 .
#760
0!
0*
0"
#770
1!
1*
1"
0$
0,
1%
1-
b11001111 &
b11001111 .
1)
0(
#780
0!
0*
0"
#790
1!
1*
1"
b10011011 &
b10011011 .
#800
0!
0*
0"
#810
1!
1*
1"
b11010111 &
b11010111 .
#820
0!
0*
0"
#830
1!
1*
1"
1$
1,
0%
0-
b00011000 &
b00011000 .
0)
1(
#840
0!
0*
0"
#850
1!
1*
1"
b01110000 &
b01110000 .
#860
0!
0*
0"
#870
1!
1*
1"
0$
0,
1%
1-
b01001110 &
b01001110 .
1)
0(
#880
0!
0*
0"
#890
1!
1*
1"
1$
1,
0%
0-
b01011011 &
b01011011 .
0)
1(
#900
0!
0*
0"
#910
1!
1*
1"
0$
0,
1%
1-
b00011000 &
b00011000 .
1)
0(
#920
0!
0*
0"
#930
1!
1*
1"
b01010011 &
b01010011 .
#940
0!
0*
0"
#950
1!
1*
1"
b01011101 &
b01011101 .
#960
0!
0*
0"
#970
1!
1*
1"
1$
1,
0%
0-
b01110011 &
b01110011 .
0)
1(
#980
0!
0*
0"
#990
1!
1*
1"
b01001001 &
b01001001 .
#1000
0!
0*
0"
#1010
1!
1*
1"
b10010111 &
b10010111 .
#1020
0!
0*
0"
#1030
1!
1*
1"
0#
0+
b01111001 &
b01111001 .
#1040
0!
0*
0"
#1050
1!
1*
1"
b0001 0
1#
1+
0$
0,
1%
1-
b10001001 &
b10001001 .
0(
#1060
0!
0*
0"
#1070
1!
1*
1"
b0000 0
1$
1,
0%
0-
b11011000 &
b11011000 .
0)
1(
#1080
0!
0*
0"
#1090
1!
1*
1"
b10001100 &
b10001100 .
#1100
0!
0*
0"
#1110
1!
1*
1"
b11110111 &
b11110111 .
#1120
0!
0*
0"
#1130
1!
1*
1"
b11000001 &
b11000001 .
#1140
0!
0*
0"
#1150
1!
1*
1"
0$
0,
1%
1-
b10100101 &
b10100101 .
1)
0(
#1160
0!
0*
0"
#1170
1!
1*
1"
b01010100 &
b01010100 .
#1180
0!
0*
0"
#1190
1!
1*
1"
1$
1,
0%
0-
b10010110 &
b10010110 .
0)
1(
#1200
0!
0*
0"
#1210
1!
1*
1"
b00010111 &
b00010111 .
#1220
0!
0*
0"
#1230
1!
1*
1"
b01010000 &
b01010000 .
#1240
0!
0*
0"
#1250
1!
1*
1"
b11111010 &
b11111010 .
#1260
0!
0*
0"
#1270
1!
1*
1"
0$
0,
1%
1-
b11001000 &
b11001000 .
1)
0(
#1280
0!
0*
0"
#1290
1!
1*
1"
b01001110 &
b01001110 .
