1-Bit Full Adder/dump.vcd
$date
	Mon Jan  2 14:47:38 2023
$end

$version
	Synopsys VCS version S-2021.09
$end

$timescale
	1ns
$end

$comment Csum: 1 99ea7d6aa2b9b2f1 $end


$scope module $unit $end
$upscope $end


$scope module testbench $end
$var reg 1 ! clk $end

$scope begin unnamed$$_vcs_2 $end
$upscope $end


$scope begin unnamed$$_vcs_0 $end
$upscope $end


$scope begin unnamed$$_vcs_1 $end
$upscope $end


$scope module _if $end
$var reg 1 " clk $end
$var reg 1 # a $end
$var reg 1 $ b $end
$var reg 1 % cin $end
$var reg 1 & rstn $end
$var reg 1 ' sum $end
$var reg 1 ( cout $end
$upscope $end


$scope module u0 $end
$var wire 1 ) a $end
$var wire 1 * b $end
$var wire 1 + cin $end
$var wire 1 , rstn $end
$var reg 1 - sum $end
$var reg 1 . cout $end
$upscope $end

$upscope $end


$scope module uvm_pkg $end
$var reg 32 / UVM_UNBOUNDED_CONNECTIONS [31:0] $end
$var reg 1 0 uvm_start_uvm_declarations $end
$var time 64 1 setting_offset $end
$var reg 32 2 setting_verbosity [31:0] $end
$var reg 1 3 is_verdi_set_verbosity_called $end
$var reg 32 4 uvm_global_random_seed [31:0] $end
$upscope $end

$enddefinitions $end

#0
$dumpvars
03
10
bxxxxxxxxxxxxxxxxxxxxxxxxxxxxxxxxxxxxxxxxxxxxxxxxxxxxxxxxxxxxxxxx 1
b11111111111111111111111111111111 /
b00000000000000000000000000000000 2
b01000010000001111100110001000111 4
0!
x.
x-
x)
x*
x+
x,
0"
x#
x$
x%
x(
x&
x'
$end
#10
1!
1"
1#
1)
0$
0*
0%
0+
0&
0,
0-
0'
0.
0(
#20
0!
0"
#30
1!
1"
1$
1*
1%
1+
1&
1,
1-
1'
1.
1(
#40
0!
0"
#50
1!
1"
0#
0)
0$
0*
0.
0(
#60
0!
0"
#70
1!
1"
1#
1)
1$
1*
1.
1(
#80
0!
0"
#90
1!
1"
0#
0)
0$
0*
0%
0+
0-
0'
0.
0(
#100
0!
0"
#110
1!
1"
1%
1+
1-
1'
#120
0!
0"
#130
1!
1"
1$
1*
0%
0+
0&
0,
0-
0'
#140
0!
0"
#150
1!
1"
1#
1)
0$
0*
1%
1+
1&
1,
1.
1(
#160
0!
0"
#170
1!
1"
0#
0)
1-
1'
0.
0(
#180
0!
0"
#190
1!
1"
1#
1)
0%
0+
#200
0!
0"
#210
1!
1"
1%
1+
0-
0'
1.
1(
#220
0!
0"
#230
1!
1"
1$
1*
1-
1'
#240
0!
0"
#250
1!
1"
0$
0*
0-
0'
#260
0!
0"
#270
1!
1"
0#
0)
1-
1'
0.
0(
#280
0!
0"
#290
1!
1"
0%
0+
0-
0'
#300
0!
0"
#310
1!
1"
1#
1)
1$
1*
1.
1(
#320
0!
0"
#330
1!
1"
0$
0*
1%
1+
#340
0!
0"
#350
1!
1"
1$
1*
0%
0+
#360
0!
0"
#370
1!
1"
0#
0)
0&
0,
0.
0(
#380
0!
0"
#390
1!
1"
1#
1)
0$
0*
1%
1+
1&
1,
1.
1(
#400
0!
0"
#410
1!
1"
#420
0!
0"
#430
1!
1"
1$
1*
0%
0+
#440
0!
0"
#450
1!
1"
0#
0)
1%
1+
#460
0!
0"
#470
1!
1"
0$
0*
1-
1'
0.
0(
#480
0!
0"
#490
1!
1"
1$
1*
0-
0'
1.
1(
#500
0!
0"
#510
1!
1"
1#
1)
1-
1'
#520
0!
0"
#530
1!
1"
0#
0)
0%
0+
0.
0(
#540
0!
0"
#550
1!
1"
0$
0*
0-
0'
#560
0!
0"
#570
1!
1"
1#
1)
1$
1*
1%
1+
1-
1'
1.
1(
#580
0!
0"
#590
1!
1"
0$
0*
0%
0+
0&
0,
0-
0'
0.
0(
#600
0!
0"
#610
1!
1"
0#
0)
1$
1*
1&
1,
1-
1'
#620
0!
0"
#630
1!
1"
1%
1+
0&
0,
0-
0'
#640
0!
0"
#650
1!
1"
0$
0*
1&
1,
1-
1'
#660
0!
0"
#670
1!
1"
1#
1)
1$
1*
0%
0+
0&
0,
0-
0'
#680
0!
0"
#690
1!
1"
0#
0)
1&
1,
1-
1'
#700
0!
0"
#710
1!
1"
1#
1)
0$
0*
#720
0!
0"
#730
1!
1"
#740
0!
0"
#750
1!
1"
1$
1*
0-
0'
1.
1(
#760
0!
0"
#770
1!
1"
0#
0)
0$
0*
1%
1+
1-
1'
0.
0(
#780
0!
0"
#790
1!
1"
1#
1)
0%
0+
#800
0!
0"
#810
1!
1"
0#
0)
0-
0'
#820
0!
0"
#830
1!
1"
1%
1+
0&
0,
#840
0!
0"
#850
1!
1"
1&
1,
1-
1'
#860
0!
0"
#870
1!
1"
#880
0!
0"
#890
1!
1"
#900
0!
0"
#910
1!
1"
0%
0+
0-
0'
#920
0!
0"
#930
1!
1"
1#
1)
1%
1+
1.
1(
#940
0!
0"
#950
1!
1"
#960
0!
0"
#970
1!
1"
0#
0)
1-
1'
0.
0(
#980
0!
0"
#990
1!
1"
1#
1)
1$
1*
1.
1(
#1000
0!
0"
#1010
1!
1"
0#
0)
0%
0+
0.
0(
#1020
0!
0"
#1030
1!
1"
#1040
0!
0"
#1050
1!
1"
#1060
0!
0"
#1070
1!
1"
1#
1)
0$
0*
1%
1+
0&
0,
0-
0'
#1080
0!
0"
#1090
1!
1"
1$
1*
0%
0+
1&
1,
1.
1(
#1100
0!
0"
#1110
1!
1"
0$
0*
1%
1+
#1120
0!
0"
#1130
1!
1"
0#
0)
1-
1'
0.
0(
#1140
0!
0"
#1150
1!
1"
1#
1)
0%
0+
#1160
0!
0"
#1170
1!
1"
0#
0)
0-
0'
#1180
0!
0"
#1190
1!
1"
1$
1*
1%
1+
1.
1(
#1200
0!
0"
#1210
1!
1"
0%
0+
0&
0,
0.
0(
#1220
0!
0"
#1230
1!
1"
1#
1)
0$
0*
1%
1+
1&
1,
1.
1(
#1240
0!
0"
#1250
1!
1"
0#
0)
0%
0+
0&
0,
0.
0(
#1260
0!
0"
#1270
1!
1"
1%
1+
#1280
0!
0"
#1290
1!
1"
1$
1*
1&
1,
1.
1(
#1300
0!
0"
#1310
1!
1"
1#
1)
1-
1'
#1320
0!
0"
#1330
1!
1"
0#
0)
0$
0*
0.
0(
#1340
0!
0"
#1350
1!
1"
1#
1)
0%
0+
#1360
0!
0"
#1370
1!
1"
0#
0)
1%
1+
#1380
0!
0"
#1390
1!
1"
#1400
0!
0"
#1410
1!
1"
#1420
0!
0"
#1430
1!
1"
1#
1)
1$
1*
0%
0+
0-
0'
1.
1(
#1440
0!
0"
#1450
1!
1"
#1460
0!
0"
#1470
1!
1"
0$
0*
1%
1+
0&
0,
0.
0(
#1480
0!
0"
#1490
1!
1"
1$
1*
0%
0+
1&
1,
1.
1(
#1500
0!
0"
#1510
1!
1"
0#
0)
0$
0*
0.
0(
#1520
0!
0"
#1530
1!
1"
1$
1*
1%
1+
1.
1(
#1540
0!
0"
#1550
1!
1"
0%
0+
1-
1'
0.
0(
#1560
0!
0"
#1570
1!
1"
1#
1)
0$
0*
1%
1+
0-
0'
1.
1(
#1580
0!
0"
#1590
1!
1"
0#
0)
1-
1'
0.
0(
#1600
0!
0"
#1610
1!
1"
1$
1*
0%
0+
#1620
0!
0"
#1630
1!
1"
0$
0*
0-
0'
#1640
0!
0"
#1650
1!
1"
1#
1)
1$
1*
1.
1(
#1660
0!
0"
#1670
1!
1"
0#
0)
0$
0*
0.
0(
#1680
0!
0"
#1690
1!
1"
1%
1+
1-
1'
#1700
0!
0"
#1710
1!
1"
1$
1*
0%
0+
0&
0,
0-
0'
#1720
0!
0"
#1730
1!
1"
0$
0*
1%
1+
1&
1,
1-
1'
#1740
0!
0"
#1750
1!
1"
0&
0,
0-
0'
#1760
0!
0"
#1770
1!
1"
0%
0+
#1780
0!
0"
#1790
1!
1"
1#
1)
1%
1+
1&
1,
1.
1(
#1800
0!
0"
#1810
1!
1"
1$
1*
1-
1'
#1820
0!
0"
#1830
1!
1"
0#
0)
0$
0*
0%
0+
0-
0'
0.
0(
#1840
0!
0"
#1850
1!
1"
1#
1)
1-
1'
#1860
0!
0"
#1870
1!
1"
0#
0)
1$
1*
#1880
0!
0"
#1890
1!
1"
1#
1)
1%
1+
1.
1(
#1900
0!
0"
#1910
1!
1"
0#
0)
0$
0*
0.
0(
#1920
0!
0"
#1930
1!
1"
0%
0+
0&
0,
0-
0'
#1940
0!
0"
#1950
1!
1"
1#
1)
1$
1*
1%
1+
1&
1,
1-
1'
1.
1(
#1960
0!
0"
#1970
1!
1"
0#
0)
0%
0+
0.
0(
#1980
0!
0"
#1990
1!
1"
1#
1)
0-
0'
1.
1(
#2000
0!
0"
#2010
1!
1"
0#
0)
1%
1+
0&
0,
0.
0(
#2020
0!
0"
#2030
1!
1"
1#
1)
1&
1,
1-
1'
1.
1(
#2040
0!
0"
#2050
1!
1"
0#
0)
0-
0'
#2060
0!
0"
#2070
1!
1"
1#
1)
0$
0*
0%
0+
1-
1'
0.
0(
#2080
0!
0"
#2090
1!
1"
0#
0)
1%
1+
#2100
0!
0"
#2110
1!
1"
1#
1)
0-
0'
1.
1(
#2120
0!
0"
#2130
1!
1"
1$
1*
1-
1'
#2140
0!
0"
#2150
1!
1"
0#
0)
0$
0*
0&
0,
0-
0'
0.
0(
#2160
0!
0"
#2170
1!
1"
0%
0+
1&
1,
#2180
0!
0"
#2190
1!
1"
#2200
0!
0"
#2210
1!
1"
1#
1)
1-
1'
#2220
0!
0"
#2230
1!
1"
0#
0)
1$
1*
0&
0,
0-
0'
#2240
0!
0"
#2250
1!
1"
0$
0*
1%
1+
1&
1,
1-
1'
#2260
0!
0"
#2270
1!
1"
0%
0+
0-
0'
#2280
0!
0"
#2290
1!
1"
1#
1)
1$
1*
1%
1+
0&
0,
#2300
0!
0"
#2310
1!
1"
0%
0+
1&
1,
1.
1(
#2320
0!
0"
#2330
1!
1"
0#
0)
0$
0*
1%
1+
1-
1'
0.
0(
#2340
0!
0"
#2350
1!
1"
1$
1*
0&
0,
0-
0'
#2360
0!
0"
#2370
1!
1"
1#
1)
0$
0*
1&
1,
1.
1(
#2380
0!
0"
#2390
1!
1"
0#
0)
1$
1*
#2400
0!
0"
#2410
1!
1"
#2420
0!
0"
#2430
1!
1"
0$
0*
0%
0+
0.
0(
#2440
0!
0"
#2450
1!
1"
1%
1+
1-
1'
#2460
0!
0"
#2470
1!
1"
1$
1*
0-
0'
1.
1(
#2480
0!
0"
#2490
1!
1"
1#
1)
0$
0*
#2500
0!
0"
#2510
1!
1"
0#
0)
1$
1*
0%
0+
1-
1'
0.
0(
#2520
0!
0"
#2530
1!
1"
1#
1)
0$
0*
1%
1+
0-
0'
1.
1(
#2540
0!
0"
#2550
1!
1"
0#
0)
0%
0+
0.
0(
#2560
0!
0"
#2570
1!
1"
#2580
0!
0"
#2590
1!
1"
1#
1)
1$
1*
1.
1(
#2600
0!
0"
#2610
1!
1"
0$
0*
1-
1'
0.
0(
#2620
0!
0"
#2630
1!
1"
1$
1*
1%
1+
1.
1(
#2640
0!
0"
#2650
1!
1"
0%
0+
0-
0'
#2660
0!
0"
#2670
1!
1"
0#
0)
0$
0*
0.
0(
#2680
0!
0"
#2690
1!
1"
1#
1)
1$
1*
1.
1(
#2700
0!
0"
#2710
1!
1"
1%
1+
1-
1'
#2720
0!
0"
#2730
1!
1"
0$
0*
0-
0'
#2740
0!
0"
#2750
1!
1"
0#
0)
1$
1*
0%
0+
1-
1'
0.
0(
#2760
0!
0"
#2770
1!
1"
0$
0*
1%
1+
#2780
0!
0"
#2790
1!
1"
1$
1*
0&
0,
0-
0'
#2800
0!
0"
#2810
1!
1"
0%
0+
1&
1,
1-
1'
#2820
0!
0"
#2830
1!
1"
1#
1)
0$
0*
#2840
0!
0"
#2850
1!
1"
0#
0)
1$
1*
1%
1+
0-
0'
1.
1(
#2860
0!
0"
#2870
1!
1"
0$
0*
0&
0,
0.
0(
#2880
0!
0"
#2890
1!
1"
1$
1*
0%
0+
1&
1,
1-
1'
#2900
0!
0"
#2910
1!
1"
1%
1+
0-
0'
1.
1(
#2920
0!
0"
#2930
1!
1"
1#
1)
0$
0*
#2940
0!
0"
#2950
1!
1"
0#
0)
0%
0+
0.
0(
#2960
0!
0"
#2970
1!
1"
1#
1)
1$
1*
1%
1+
1-
1'
1.
1(
#2980
0!
0"
#2990
1!
1"
0#
0)
0$
0*
0.
0(
#3000
0!
0"
#3010
1!
1"
1#
1)
0-
0'
1.
1(
#3020
0!
0"
#3030
1!
1"
1$
1*
1-
1'
#3040
0!
0"
#3050
1!
1"
0#
0)
0$
0*
0.
0(
#3060
0!
0"
#3070
1!
1"
1$
1*
0-
0'
1.
1(
#3080
0!
0"
#3090
1!
1"
0$
0*
0%
0+
0&
0,
0.
0(
#3100
0!
0"
#3110
1!
1"
1#
1)
1$
1*
1%
1+
1&
1,
1-
1'
1.
1(
#3120
0!
0"
#3130
1!
1"
0$
0*
0&
0,
0-
0'
0.
0(
#3140
0!
0"
#3150
1!
1"
0#
0)
1$
1*
#3160
0!
0"
#3170
1!
1"
0$
0*
1&
1,
1-
1'
#3180
0!
0"
#3190
1!
1"
1#
1)
1$
1*
1.
1(
#3200
0!
0"
#3210
1!
1"
#3220
0!
0"
#3230
1!
1"
0$
0*
0-
0'
#3240
0!
0"
#3250
1!
1"
0#
0)
1-
1'
0.
0(
#3260
0!
0"
#3270
1!
1"
0%
0+
0-
0'
#3280
0!
0"
#3290
1!
1"
#3300
0!
0"
#3310
1!
1"
1$
1*
1%
1+
1.
1(
#3320
0!
0"
#3330
1!
1"
1#
1)
0$
0*
0%
0+
1-
1'
0.
0(
#3340
0!
0"
#3350
1!
1"
0#
0)
1%
1+
#3360
0!
0"
#3370
1!
1"
1#
1)
1$
1*
0%
0+
0&
0,
0-
0'
#3380
0!
0"
#3390
1!
1"
0#
0)
1&
1,
1-
1'
#3400
0!
0"
#3410
1!
1"
1#
1)
0$
0*
#3420
0!
0"
#3430
1!
1"
0#
0)
1$
1*
1%
1+
0-
0'
1.
1(
#3440
0!
0"
#3450
1!
1"
0%
0+
0&
0,
0.
0(
#3460
0!
0"
#3470
1!
1"
1#
1)
1&
1,
1.
1(
#3480
0!
0"
#3490
1!
1"
0$
0*
1%
1+
#3500
0!
0"
#3510
1!
1"
0#
0)
1-
1'
0.
0(
#3520
0!
0"
#3530
1!
1"
0%
0+
0-
0'
#3540
0!
0"
#3550
1!
1"
#3560
0!
0"
#3570
1!
1"
1#
1)
1$
1*
1%
1+
1-
1'
1.
1(
#3580
0!
0"
#3590
1!
1"
0#
0)
0$
0*
0%
0+
0-
0'
0.
0(
#3600
0!
0"
#3610
1!
1"
#3620
0!
0"
#3630
1!
1"
0&
0,
#3640
0!
0"
#3650
1!
1"
1#
1)
1$
1*
1&
1,
1.
1(
#3660
0!
0"
#3670
1!
1"
0#
0)
0&
0,
0.
0(
#3680
0!
0"
#3690
1!
1"
1#
1)
1%
1+
1&
1,
1-
1'
1.
1(
#3700
0!
0"
#3710
1!
1"
0#
0)
0$
0*
0%
0+
0-
0'
0.
0(
#3720
0!
0"
#3730
1!
1"
1#
1)
1$
1*
1%
1+
1-
1'
1.
1(
#3740
0!
0"
#3750
1!
1"
0$
0*
0%
0+
0.
0(
#3760
0!
0"
#3770
1!
1"
0#
0)
0-
0'
#3780
0!
0"
#3790
1!
1"
1#
1)
1$
1*
1.
1(
#3800
0!
0"
#3810
1!
1"
0$
0*
1%
1+
#3820
0!
0"
#3830
1!
1"
0#
0)
1$
1*
#3840
0!
0"
#3850
1!
1"
1#
1)
0$
0*
#3860
0!
0"
#3870
1!
1"
1$
1*
0%
0+
#3880
0!
0"
#3890
1!
1"
1%
1+
1-
1'
#3900
0!
0"
#3910
1!
1"
0#
0)
0-
0'
#3920
0!
0"
#3930
1!
1"
1#
1)
0$
0*
0&
0,
0.
0(
#3940
0!
0"
#3950
1!
1"
0#
0)
#3960
0!
0"
#3970
1!
1"
1#
1)
1$
1*
1&
1,
1-
1'
1.
1(
#3980
0!
0"
#3990
1!
1"
0#
0)
0&
0,
0-
0'
0.
0(
#4000
0!
0"
#4010
1!
1"
0%
0+
1&
1,
1-
1'
#4020
0!
0"
#4030
1!
1"
1#
1)
1%
1+
1.
1(
#4040
0!
0"
#4050
1!
1"
0#
0)
0$
0*
0.
0(
#4060
0!
0"
#4070
1!
1"
1$
1*
0%
0+
#4080
0!
0"
#4090
1!
1"
0$
0*
1%
1+
#4100
0!
0"
#4110
1!
1"
1#
1)
1$
1*
1.
1(
#4120
0!
0"
#4130
1!
1"
0#
0)
0-
0'
#4140
0!
0"
#4150
1!
1"
1#
1)
0$
0*
0%
0+
1-
1'
0.
0(
#4160
0!
0"
#4170
1!
1"
0#
0)
1$
1*
1%
1+
0-
0'
1.
1(
#4180
0!
0"
#4190
1!
1"
0$
0*
1-
1'
0.
0(
#4200
0!
0"
#4210
1!
1"
1#
1)
1$
1*
1.
1(
#4220
0!
0"
#4230
1!
1"
0#
0)
0%
0+
0.
0(
#4240
0!
0"
#4250
1!
1"
#4260
0!
0"
#4270
1!
1"
1#
1)
0-
0'
1.
1(
#4280
0!
0"
#4290
1!
1"
0#
0)
1-
1'
0.
0(
#4300
0!
0"
#4310
1!
1"
1#
1)
0$
0*
#4320
0!
0"
#4330
1!
1"
1$
1*
1%
1+
1.
1(
#4340
0!
0"
#4350
1!
1"
0#
0)
0$
0*
0%
0+
0-
0'
0.
0(
#4360
0!
0"
#4370
1!
1"
1#
1)
1$
1*
1.
1(
#4380
0!
0"
#4390
1!
1"
0$
0*
1-
1'
0.
0(
#4400
0!
0"
#4410
1!
1"
0#
0)
1$
1*
0&
0,
0-
0'
#4420
0!
0"
#4430
1!
1"
1#
1)
0$
0*
1%
1+
1&
1,
1.
1(
#4440
0!
0"
#4450
1!
1"
0#
0)
0%
0+
0.
0(
#4460
0!
0"
#4470
1!
1"
1$
1*
1%
1+
1.
1(
#4480
0!
0"
#4490
1!
1"
1#
1)
0%
0+
#4500
0!
0"
#4510
1!
1"
1%
1+
1-
1'
#4520
0!
0"
#4530
1!
1"
0$
0*
0-
0'
#4540
0!
0"
#4550
1!
1"
1$
1*
1-
1'
#4560
0!
0"
#4570
1!
1"
0#
0)
0$
0*
0%
0+
0&
0,
0-
0'
0.
0(
#4580
0!
0"
#4590
1!
1"
1&
1,
#4600
0!
0"
#4610
1!
1"
1#
1)
1-
1'
#4620
0!
0"
#4630
1!
1"
0#
0)
1%
1+
#4640
0!
0"
#4650
1!
1"
#4660
0!
0"
#4670
1!
1"
1#
1)
0%
0+
#4680
0!
0"
#4690
1!
1"
0#
0)
1%
1+
#4700
0!
0"
#4710
1!
1"
1$
1*
0%
0+
#4720
0!
0"
#4730
1!
1"
1#
1)
0-
0'
1.
1(
#4740
0!
0"
#4750
1!
1"
1%
1+
1-
1'
#4760
0!
0"
#4770
1!
1"
0#
0)
0$
0*
0.
0(
#4780
0!
0"
#4790
1!
1"
#4800
0!
0"
#4810
1!
1"
1#
1)
1$
1*
1.
1(
#4820
0!
0"
#4830
1!
1"
0#
0)
0%
0+
0.
0(
#4840
0!
0"
#4850
1!
1"
1#
1)
0$
0*
#4860
0!
0"
#4870
1!
1"
#4880
0!
0"
#4890
1!
1"
#4900
0!
0"
#4910
1!
1"
1$
1*
1%
1+
1.
1(
#4920
0!
0"
#4930
1!
1"
0$
0*
0-
0'
#4940
0!
0"
#4950
1!
1"
0#
0)
0%
0+
0.
0(
#4960
0!
0"
#4970
1!
1"
1#
1)
1-
1'
#4980
0!
0"
#4990
1!
1"
#5000
0!
0"
#5010
1!
1"
0#
0)
1%
1+
0&
0,
0-
0'
#5020
0!
0"
#5030
1!
1"
0%
0+
1&
1,
#5040
0!
0"
#5050
1!
1"
1$
1*
1-
1'
#5060
0!
0"
#5070
1!
1"
#5080
0!
0"
#5090
1!
1"
1#
1)
0$
0*
1%
1+
0-
0'
1.
1(
#5100
0!
0"
#5110
1!
1"
0#
0)
1$
1*
0%
0+
1-
1'
0.
0(
#5120
0!
0"
#5130
1!
1"
1#
1)
0$
0*
#5140
0!
0"
#5150
1!
1"
0#
0)
1$
1*
#5160
0!
0"
#5170
1!
1"
1#
1)
0-
0'
1.
1(
#5180
0!
0"
#5190
1!
1"
0$
0*
1%
1+
#5200
0!
0"
#5210
1!
1"
0#
0)
1$
1*
0%
0+
1-
1'
0.
0(
#5220
0!
0"
#5230
1!
1"
1%
1+
0-
0'
1.
1(
#5240
0!
0"
#5250
1!
1"
1#
1)
0$
0*
0%
0+
1-
1'
0.
0(
#5260
0!
0"
#5270
1!
1"
0#
0)
1$
1*
#5280
0!
0"
#5290
1!
1"
1#
1)
1%
1+
1.
1(
#5300
0!
0"
#5310
1!
1"
#5320
0!
0"
#5330
1!
1"
0#
0)
0$
0*
0.
0(
#5340
0!
0"
#5350
1!
1"
1$
1*
0%
0+
#5360
0!
0"
#5370
1!
1"
0$
0*
0-
0'
#5380
0!
0"
#5390
1!
1"
1%
1+
1-
1'
#5400
0!
0"
#5410
1!
1"
#5420
0!
0"
#5430
1!
1"
0%
0+
0-
0'
#5440
0!
0"
#5450
1!
1"
1$
1*
1%
1+
0&
0,
#5460
0!
0"
#5470
1!
1"
1&
1,
1.
1(
#5480
0!
0"
#5490
1!
1"
1#
1)
0$
0*
0%
0+
1-
1'
0.
0(
#5500
0!
0"
#5510
1!
1"
0#
0)
1$
1*
1%
1+
0-
0'
1.
1(
#5520
0!
0"
#5530
1!
1"
0&
0,
0.
0(
#5540
0!
0"
#5550
1!
1"
0$
0*
1&
1,
1-
1'
#5560
0!
0"
#5570
1!
1"
0%
0+
0-
0'
#5580
0!
0"
#5590
1!
1"
1%
1+
1-
1'
#5600
0!
0"
#5610
1!
1"
1$
1*
0%
0+
#5620
0!
0"
#5630
1!
1"
1#
1)
0$
0*
1%
1+
0&
0,
0-
0'
#5640
0!
0"
#5650
1!
1"
0#
0)
0%
0+
1&
1,
#5660
0!
0"
#5670
1!
1"
1$
1*
1%
1+
1.
1(
#5680
0!
0"
#5690
1!
1"
0$
0*
1-
1'
0.
0(
#5700
0!
0"
#5710
1!
1"
1$
1*
0-
0'
1.
1(
#5720
0!
0"
#5730
1!
1"
0%
0+
1-
1'
0.
0(
#5740
0!
0"
#5750
1!
1"
1#
1)
0$
0*
1%
1+
0-
0'
1.
1(
#5760
0!
0"
#5770
1!
1"
#5780
0!
0"
#5790
1!
1"
0%
0+
0&
0,
0.
0(
#5800
0!
0"
#5810
1!
1"
1&
1,
1-
1'
#5820
0!
0"
#5830
1!
1"
1$
1*
0-
0'
1.
1(
#5840
0!
0"
#5850
1!
1"
0#
0)
0$
0*
0.
0(
#5860
0!
0"
#5870
1!
1"
1#
1)
1$
1*
1.
1(
#5880
0!
0"
#5890
1!
1"
0#
0)
0$
0*
0.
0(
#5900
0!
0"
#5910
1!
1"
1#
1)
1$
1*
1.
1(
#5920
0!
0"
#5930
1!
1"
0#
0)
0$
0*
1%
1+
1-
1'
0.
0(
#5940
0!
0"
#5950
1!
1"
1#
1)
1$
1*
1.
1(
#5960
0!
0"
#5970
1!
1"
0#
0)
0%
0+
0.
0(
#5980
0!
0"
#5990
1!
1"
0$
0*
1%
1+
#6000
0!
0"
#6010
1!
1"
1$
1*
0%
0+
#6020
0!
0"
#6030
1!
1"
1%
1+
0-
0'
1.
1(
#6040
0!
0"
#6050
1!
1"
1#
1)
1-
1'
#6060
0!
0"
#6070
1!
1"
0#
0)
0$
0*
0%
0+
0-
0'
0.
0(
#6080
0!
0"
#6090
1!
1"
1%
1+
0&
0,
#6100
0!
0"
#6110
1!
1"
1$
1*
#6120
0!
0"
#6130
1!
1"
0$
0*
0%
0+
1&
1,
#6140
0!
0"
#6150
1!
1"
1#
1)
1$
1*
1.
1(
#6160
0!
0"
#6170
1!
1"
0#
0)
0$
0*
0.
0(
#6180
0!
0"
#6190
1!
1"
1#
1)
1%
1+
1.
1(
#6200
0!
0"
#6210
1!
1"
0#
0)
1-
1'
0.
0(
#6220
0!
0"
#6230
1!
1"
#6240
0!
0"
#6250
1!
1"
0%
0+
0&
0,
0-
0'
#6260
0!
0"
#6270
1!
1"
1#
1)
1$
1*
1%
1+
1&
1,
1-
1'
1.
1(
#6280
0!
0"
#6290
1!
1"
0#
0)
0$
0*
0%
0+
0-
0'
0.
0(
#6300
0!
0"
#6310
1!
1"
#6320
0!
0"
#6330
1!
1"
1$
1*
1%
1+
1.
1(
#6340
0!
0"
#6350
1!
1"
#6360
0!
0"
#6370
1!
1"
1#
1)
0$
0*
0%
0+
1-
1'
0.
0(
#6380
0!
0"
#6390
1!
1"
1$
1*
1%
1+
1.
1(
#6400
0!
0"
#6410
1!
1"
0#
0)
0-
0'
#6420
0!
0"
#6430
1!
1"
0%
0+
1-
1'
0.
0(
#6440
0!
0"
#6450
1!
1"
1%
1+
0-
0'
1.
1(
#6460
0!
0"
#6470
1!
1"
1#
1)
0%
0+
#6480
0!
0"
#6490
1!
1"
0$
0*
0&
0,
0.
0(
#6500
0!
0"
#6510
1!
1"
0#
0)
1$
1*
1&
1,
1-
1'
#6520
0!
0"
#6530
1!
1"
1#
1)
1%
1+
1.
1(
#6540
0!
0"
#6550
1!
1"
0#
0)
0$
0*
0.
0(
#6560
0!
0"
#6570
1!
1"
1#
1)
0%
0+
#6580
0!
0"
#6590
1!
1"
0#
0)
1%
1+
#6600
0!
0"
#6610
1!
1"
1#
1)
0-
0'
1.
1(
#6620
0!
0"
#6630
1!
1"
#6640
0!
0"
#6650
1!
1"
1$
1*
0%
0+
#6660
0!
0"
#6670
1!
1"
0$
0*
1%
1+
#6680
0!
0"
#6690
1!
1"
0&
0,
0.
0(
#6700
0!
0"
#6710
1!
1"
1$
1*
0%
0+
1&
1,
1.
1(
#6720
0!
0"
#6730
1!
1"
0#
0)
1%
1+
#6740
0!
0"
#6750
1!
1"
0&
0,
0.
0(
#6760
0!
0"
#6770
1!
1"
1#
1)
0$
0*
0%
0+
1&
1,
1-
1'
#6780
0!
0"
#6790
1!
1"
0#
0)
0-
0'
#6800
0!
0"
#6810
1!
1"
#6820
0!
0"
#6830
1!
1"
1#
1)
1%
1+
1.
1(
#6840
0!
0"
#6850
1!
1"
#6860
0!
0"
#6870
1!
1"
#6880
0!
0"
#6890
1!
1"
0#
0)
1$
1*
0%
0+
1-
1'
0.
0(
#6900
0!
0"
#6910
1!
1"
1#
1)
0-
0'
1.
1(
#6920
0!
0"
#6930
1!
1"
1%
1+
1-
1'
#6940
0!
0"
#6950
1!
1"
0$
0*
0%
0+
0.
0(
#6960
0!
0"
#6970
1!
1"
1%
1+
0-
0'
1.
1(
#6980
0!
0"
#6990
1!
1"
#7000
0!
0"
#7010
1!
1"
0%
0+
1-
1'
0.
0(
#7020
0!
0"
#7030
1!
1"
#7040
0!
0"
#7050
1!
1"
1%
1+
0-
0'
1.
1(
#7060
0!
0"
#7070
1!
1"
0%
0+
1-
1'
0.
0(
#7080
0!
0"
#7090
1!
1"
1$
1*
1%
1+
1.
1(
#7100
0!
0"
#7110
1!
1"
0#
0)
0-
0'
#7120
0!
0"
#7130
1!
1"
1#
1)
0$
0*
0%
0+
1-
1'
0.
0(
#7140
0!
0"
#7150
1!
1"
1$
1*
0-
0'
1.
1(
#7160
0!
0"
#7170
1!
1"
0#
0)
0$
0*
0.
0(
#7180
0!
0"
#7190
1!
1"
#7200
0!
0"
#7210
1!
1"
1#
1)
1%
1+
1.
1(
#7220
0!
0"
#7230
1!
1"
0#
0)
1$
1*
#7240
0!
0"
#7250
1!
1"
0$
0*
1-
1'
0.
0(
#7260
0!
0"
#7270
1!
1"
#7280
0!
0"
#7290
1!
1"
#7300
0!
0"
#7310
1!
1"
1#
1)
1$
1*
0%
0+
0-
0'
1.
1(
#7320
0!
0"
#7330
1!
1"
0#
0)
1%
1+
#7340
0!
0"
#7350
1!
1"
1#
1)
0$
0*
#7360
0!
0"
#7370
1!
1"
1$
1*
0%
0+
#7380
0!
0"
#7390
1!
1"
0#
0)
1-
1'
0.
0(
#7400
0!
0"
#7410
1!
1"
1#
1)
1%
1+
1.
1(
#7420
0!
0"
#7430
1!
1"
0#
0)
0$
0*
0%
0+
0-
0'
0.
0(
#7440
0!
0"
#7450
1!
1"
#7460
0!
0"
#7470
1!
1"
#7480
0!
0"
#7490
1!
1"
1#
1)
1%
1+
1.
1(
#7500
0!
0"
#7510
1!
1"
0#
0)
1$
1*
#7520
0!
0"
#7530
1!
1"
1#
1)
0%
0+
#7540
0!
0"
#7550
1!
1"
0#
0)
1%
1+
#7560
0!
0"
#7570
1!
1"
1#
1)
0$
0*
#7580
0!
0"
#7590
1!
1"
1$
1*
0%
0+
#7600
0!
0"
#7610
1!
1"
1%
1+
1-
1'
