DFF_MEM/DFF_ENV_RAL/dump.vcd
$date
	Tue Mar  7 20:48:19 2023
$end

$version
	Synopsys VCS version S-2021.09
$end

$timescale
	1ns
$end

$comment Csum: 1 d56e2eecd4f8cea3 $end


$scope module $unit $end
$upscope $end


$scope module tb_top $end
$var reg 1 ! clk $end
$var reg 1 " reset_n $end

$scope begin unnamed$$_vcs_2 $end
$upscope $end


$scope begin unnamed$$_vcs_0 $end
$upscope $end


$scope begin unnamed$$_vcs_1 $end
$upscope $end


$scope begin unnamed$$_vcs_3 $end
$upscope $end


$scope module vif $end
$var reg 1 # clk $end
$var reg 1 $ reset_n $end
$var reg 1 % rw $end
$var reg 8 & address_in [7:0] $end
$var reg 8 ' data_in [7:0] $end
$var reg 8 ( data_out [7:0] $end
$upscope $end


$scope module dut $end
$var wire 1 ) clk $end
$var wire 1 * reset $end
$var wire 1 + rw $end
$var wire 8 , address_in [7:0] $end
$var wire 8 - data_in [7:0] $end
$var wire 8 . data_out [7:0] $end
$var reg 8 / dff_out [7:0] $end
$upscope $end

$upscope $end


$scope module uvm_pkg $end
$var reg 32 0 UVM_UNBOUNDED_CONNECTIONS [31:0] $end
$var reg 1 1 uvm_start_uvm_declarations $end
$var time 64 2 setting_offset $end
$var reg 32 3 setting_verbosity [31:0] $end
$var reg 1 4 is_verdi_set_verbosity_called $end
$var reg 32 5 uvm_global_random_seed [31:0] $end
$upscope $end

$enddefinitions $end

#0
$dumpvars
04
11
bxxxxxxxxxxxxxxxxxxxxxxxxxxxxxxxxxxxxxxxxxxxxxxxxxxxxxxxxxxxxxxxx 2
b11111111111111111111111111111111 0
b00000000000000000000000000000000 3
b01000010000001111100110001000111 5
0!
0"
bxxxxxxxx (
b00100001 '
b01011010 &
bxxxxxxxx /
b01011010 ,
b00100001 -
bxxxxxxxx .
0)
0*
1+
0#
0$
1%
$end
#2
1!
1#
1)
b00000000 /
b00000000 .
b00000000 (
0%
0+
#4
0!
0#
0)
#5
1"
1$
1*
#6
1!
1#
1)
bxxxxxxxx /
bxxxxxxxx .
bxxxxxxxx (
#8
0!
0#
0)
#10
1!
1#
1)
#12
0!
0#
0)
#14
1!
1#
1)
#15
b10100010 &
b10100010 ,
1%
1+
b10110000 '
b10110000 -
#16
0!
0#
0)
#18
1!
1#
1)
b10110000 /
b10110000 .
b10110000 (
0%
0+
#20
0!
0#
0)
#22
1!
1#
1)
bxxxxxxxx /
bxxxxxxxx .
bxxxxxxxx (
#24
0!
0#
0)
#26
1!
1#
1)
#28
0!
0#
0)
#30
1!
1#
1)
#31
b10111001 &
b10111001 ,
1%
1+
b01101010 '
b01101010 -
#32
0!
0#
0)
#34
1!
1#
1)
b01101010 /
b01101010 .
b01101010 (
0%
0+
#36
0!
0#
0)
#38
1!
1#
1)
bxxxxxxxx /
bxxxxxxxx .
bxxxxxxxx (
#40
0!
0#
0)
#42
1!
1#
1)
#44
0!
0#
0)
#46
1!
1#
1)
#47
b01000011 &
b01000011 ,
1%
1+
b00000000 '
b00000000 -
#48
0!
0#
0)
#50
1!
1#
1)
b00000000 /
b00000000 .
b00000000 (
0%
0+
#52
0!
0#
0)
#54
1!
1#
1)
bxxxxxxxx /
bxxxxxxxx .
bxxxxxxxx (
#56
0!
0#
0)
#58
1!
1#
1)
#60
0!
0#
0)
#62
1!
1#
1)
#63
b11010001 &
b11010001 ,
1%
1+
b00100000 '
b00100000 -
#64
0!
0#
0)
#66
1!
1#
1)
b00100000 /
b00100000 .
b00100000 (
0%
0+
#68
0!
0#
0)
#70
1!
1#
1)
bxxxxxxxx /
bxxxxxxxx .
bxxxxxxxx (
#72
0!
0#
0)
#74
1!
1#
1)
#76
0!
0#
0)
#78
1!
1#
1)
#79
b10110100 &
b10110100 ,
1%
1+
b11100000 '
b11100000 -
#80
0!
0#
0)
#82
1!
1#
1)
b11100000 /
b11100000 .
b11100000 (
0%
0+
#84
0!
0#
0)
#86
1!
1#
1)
bxxxxxxxx /
bxxxxxxxx .
bxxxxxxxx (
#88
0!
0#
0)
#90
1!
1#
1)
#92
0!
0#
0)
#94
1!
1#
1)
#95
b10100001 &
b10100001 ,
1%
1+
b01001110 '
b01001110 -
#96
0!
0#
0)
#98
1!
1#
1)
b01001110 /
b01001110 .
b01001110 (
0%
0+
#100
0!
0#
0)
#102
1!
1#
1)
b10110000 /
b10110000 .
b10110000 (
#104
0!
0#
0)
#106
1!
1#
1)
#108
0!
0#
0)
#110
1!
1#
1)
#111
b11000011 &
b11000011 ,
1%
1+
b01001111 '
b01001111 -
#112
0!
0#
0)
#114
1!
1#
1)
b01001111 /
b01001111 .
b01001111 (
0%
0+
#116
0!
0#
0)
#118
1!
1#
1)
bxxxxxxxx /
bxxxxxxxx .
bxxxxxxxx (
#120
0!
0#
0)
#122
1!
1#
1)
#124
0!
0#
0)
#126
1!
1#
1)
#127
b01001100 &
b01001100 ,
1%
1+
b10101111 '
b10101111 -
#128
0!
0#
0)
#130
1!
1#
1)
b10101111 /
b10101111 .
b10101111 (
0%
0+
#132
0!
0#
0)
#134
1!
1#
1)
bxxxxxxxx /
bxxxxxxxx .
bxxxxxxxx (
#136
0!
0#
0)
#138
1!
1#
1)
#140
0!
0#
0)
#142
1!
1#
1)
#143
b00101001 &
b00101001 ,
1%
1+
b11001101 '
b11001101 -
#144
0!
0#
0)
#146
1!
1#
1)
b11001101 /
b11001101 .
b11001101 (
0%
0+
#148
0!
0#
0)
#150
1!
1#
1)
bxxxxxxxx /
bxxxxxxxx .
bxxxxxxxx (
#152
0!
0#
0)
#154
1!
1#
1)
#156
0!
0#
0)
#158
1!
1#
1)
#159
b10001011 &
b10001011 ,
1%
1+
b10000010 '
b10000010 -
#160
0!
0#
0)
#162
1!
1#
1)
b10000010 /
b10000010 .
b10000010 (
0%
0+
#164
0!
0#
0)
#166
1!
1#
1)
bxxxxxxxx /
bxxxxxxxx .
bxxxxxxxx (
#168
0!
0#
0)
#170
1!
1#
1)
#172
0!
0#
0)
#174
1!
1#
1)
#175
b11000100 &
b11000100 ,
1%
1+
b11011110 '
b11011110 -
#176
0!
0#
0)
#178
1!
1#
1)
b11011110 /
b11011110 .
b11011110 (
0%
0+
#180
0!
0#
0)
#182
1!
1#
1)
bxxxxxxxx /
bxxxxxxxx .
bxxxxxxxx (
#184
0!
0#
0)
#186
1!
1#
1)
#188
0!
0#
0)
#190
1!
1#
1)
#191
b10010001 &
b10010001 ,
1%
1+
b01100001 '
b01100001 -
#192
0!
0#
0)
#194
1!
1#
1)
b01100001 /
b01100001 .
b01100001 (
0%
0+
#196
0!
0#
0)
#198
1!
1#
1)
bxxxxxxxx /
bxxxxxxxx .
bxxxxxxxx (
#200
0!
0#
0)
#202
1!
1#
1)
#204
0!
0#
0)
#206
1!
1#
1)
#207
b01111010 &
b01111010 ,
1%
1+
b01101110 '
b01101110 -
#208
0!
0#
0)
#210
1!
1#
1)
b01101110 /
b01101110 .
b01101110 (
0%
0+
#212
0!
0#
0)
#214
1!
1#
1)
bxxxxxxxx /
bxxxxxxxx .
bxxxxxxxx (
#216
0!
0#
0)
#218
1!
1#
1)
#220
0!
0#
0)
#222
1!
1#
1)
#223
b01011000 &
b01011000 ,
1%
1+
b00111011 '
b00111011 -
#224
0!
0#
0)
#226
1!
1#
1)
b00111011 /
b00111011 .
b00111011 (
0%
0+
#228
0!
0#
0)
#230
1!
1#
1)
bxxxxxxxx /
bxxxxxxxx .
bxxxxxxxx (
#232
0!
0#
0)
#234
1!
1#
1)
#236
0!
0#
0)
#238
1!
1#
1)
#239
b01011101 &
b01011101 ,
1%
1+
b01001111 '
b01001111 -
#240
0!
0#
0)
#242
1!
1#
1)
b01001111 /
b01001111 .
b01001111 (
0%
0+
#244
0!
0#
0)
#246
1!
1#
1)
bxxxxxxxx /
bxxxxxxxx .
bxxxxxxxx (
#248
0!
0#
0)
#250
1!
1#
1)
#252
0!
0#
0)
#254
1!
1#
1)
#255
b00100110 &
b00100110 ,
1%
1+
b00101011 '
b00101011 -
#256
0!
0#
0)
#258
1!
1#
1)
b00101011 /
b00101011 .
b00101011 (
0%
0+
#260
0!
0#
0)
#262
1!
1#
1)
bxxxxxxxx /
bxxxxxxxx .
bxxxxxxxx (
#264
0!
0#
0)
#266
1!
1#
1)
#268
0!
0#
0)
#270
1!
1#
1)
#271
b11111010 &
b11111010 ,
1%
1+
b01011111 '
b01011111 -
#272
0!
0#
0)
#274
1!
1#
1)
b01011111 /
b01011111 .
b01011111 (
0%
0+
#276
0!
0#
0)
#278
1!
1#
1)
bxxxxxxxx /
bxxxxxxxx .
bxxxxxxxx (
#280
0!
0#
0)
#282
1!
1#
1)
#284
0!
0#
0)
#286
1!
1#
1)
#287
b11110110 &
b11110110 ,
1%
1+
b10011011 '
b10011011 -
#288
0!
0#
0)
#290
1!
1#
1)
b10011011 /
b10011011 .
b10011011 (
0%
0+
#292
0!
0#
0)
#294
1!
1#
1)
bxxxxxxxx /
bxxxxxxxx .
bxxxxxxxx (
#296
0!
0#
0)
#298
1!
1#
1)
#300
0!
0#
0)
#302
1!
1#
1)
#303
b01110111 &
b01110111 ,
1%
1+
b11010110 '
b11010110 -
#304
0!
0#
0)
#306
1!
1#
1)
b11010110 /
b11010110 .
b11010110 (
0%
0+
#308
0!
0#
0)
#310
1!
1#
1)
bxxxxxxxx /
bxxxxxxxx .
bxxxxxxxx (
#312
0!
0#
0)
#314
1!
1#
1)
#316
0!
0#
0)
#318
1!
1#
1)
#319
b00010010 &
b00010010 ,
1%
1+
b01010001 '
b01010001 -
#320
0!
0#
0)
#322
1!
1#
1)
b01010001 /
b01010001 .
b01010001 (
0%
0+
#324
0!
0#
0)
#326
1!
1#
1)
bxxxxxxxx /
bxxxxxxxx .
bxxxxxxxx (
#328
0!
0#
0)
#330
1!
1#
1)
#332
0!
0#
0)
#334
1!
1#
1)
#335
b01000110 &
b01000110 ,
1%
1+
b00111110 '
b00111110 -
#336
0!
0#
0)
#338
1!
1#
1)
b00111110 /
b00111110 .
b00111110 (
0%
0+
#340
0!
0#
0)
#342
1!
1#
1)
bxxxxxxxx /
bxxxxxxxx .
bxxxxxxxx (
#344
0!
0#
0)
#346
1!
1#
1)
#348
0!
0#
0)
#350
1!
1#
1)
#351
b10101111 &
b10101111 ,
1%
1+
b10100001 '
b10100001 -
#352
0!
0#
0)
#354
1!
1#
1)
b10100001 /
b10100001 .
b10100001 (
0%
0+
#356
0!
0#
0)
#358
1!
1#
1)
bxxxxxxxx /
bxxxxxxxx .
bxxxxxxxx (
#360
0!
0#
0)
#362
1!
1#
1)
#364
0!
0#
0)
#366
1!
1#
1)
#367
b11110110 &
b11110110 ,
1%
1+
b01101010 '
b01101010 -
#368
0!
0#
0)
#370
1!
1#
1)
b01101010 /
b01101010 .
b01101010 (
0%
0+
#372
0!
0#
0)
#374
1!
1#
1)
bxxxxxxxx /
bxxxxxxxx .
bxxxxxxxx (
#376
0!
0#
0)
#378
1!
1#
1)
#380
0!
0#
0)
#382
1!
1#
1)
#383
b00110000 &
b00110000 ,
1%
1+
b11000101 '
b11000101 -
#384
0!
0#
0)
#386
1!
1#
1)
b11000101 /
b11000101 .
b11000101 (
0%
0+
#388
0!
0#
0)
#390
1!
1#
1)
bxxxxxxxx /
bxxxxxxxx .
bxxxxxxxx (
#392
0!
0#
0)
#394
1!
1#
1)
#396
0!
0#
0)
#398
1!
1#
1)
#399
b10111000 &
b10111000 ,
1%
1+
b11001100 '
b11001100 -
#400
0!
0#
0)
#402
1!
1#
1)
b11001100 /
b11001100 .
b11001100 (
0%
0+
#404
0!
0#
0)
#406
1!
1#
1)
b01101010 /
b01101010 .
b01101010 (
#408
0!
0#
0)
#410
1!
1#
1)
#412
0!
0#
0)
#414
1!
1#
1)
#415
b01010100 &
b01010100 ,
1%
1+
b00000110 '
b00000110 -
#416
0!
0#
0)
#418
1!
1#
1)
b00000110 /
b00000110 .
b00000110 (
0%
0+
#420
0!
0#
0)
#422
1!
1#
1)
bxxxxxxxx /
bxxxxxxxx .
bxxxxxxxx (
#424
0!
0#
0)
#426
1!
1#
1)
#428
0!
0#
0)
#430
1!
1#
1)
#431
b11000000 &
b11000000 ,
1%
1+
b10110011 '
b10110011 -
#432
0!
0#
0)
#434
1!
1#
1)
b10110011 /
b10110011 .
b10110011 (
0%
0+
#436
0!
0#
0)
#438
1!
1#
1)
bxxxxxxxx /
bxxxxxxxx .
bxxxxxxxx (
#440
0!
0#
0)
#442
1!
1#
1)
#444
0!
0#
0)
#446
1!
1#
1)
#447
b00101100 &
b00101100 ,
1%
1+
b10011010 '
b10011010 -
#448
0!
0#
0)
#450
1!
1#
1)
b10011010 /
b10011010 .
b10011010 (
0%
0+
#452
0!
0#
0)
#454
1!
1#
1)
bxxxxxxxx /
bxxxxxxxx .
bxxxxxxxx (
#456
0!
0#
0)
#458
1!
1#
1)
#460
0!
0#
0)
#462
1!
1#
1)
#463
b01110010 &
b01110010 ,
1%
1+
b10100111 '
b10100111 -
#464
0!
0#
0)
#466
1!
1#
1)
b10100111 /
b10100111 .
b10100111 (
0%
0+
#468
0!
0#
0)
#470
1!
1#
1)
bxxxxxxxx /
bxxxxxxxx .
bxxxxxxxx (
#472
0!
0#
0)
#474
1!
1#
1)
#476
0!
0#
0)
#478
1!
1#
1)
#479
b11011101 &
b11011101 ,
1%
1+
b01000110 '
b01000110 -
#480
0!
0#
0)
#482
1!
1#
1)
b01000110 /
b01000110 .
b01000110 (
0%
0+
#484
0!
0#
0)
#486
1!
1#
1)
bxxxxxxxx /
bxxxxxxxx .
bxxxxxxxx (
#488
0!
0#
0)
#490
1!
1#
1)
#492
0!
0#
0)
#494
1!
1#
1)
#495
b00000111 &
b00000111 ,
1%
1+
b01111101 '
b01111101 -
#496
0!
0#
0)
#498
1!
1#
1)
b01111101 /
b01111101 .
b01111101 (
0%
0+
#500
0!
0#
0)
#502
1!
1#
1)
bxxxxxxxx /
bxxxxxxxx .
bxxxxxxxx (
#504
0!
0#
0)
#506
1!
1#
1)
#508
0!
0#
0)
#510
1!
1#
1)
#511
b01101100 &
b01101100 ,
1%
1+
b10001001 '
b10001001 -
#512
0!
0#
0)
#514
1!
1#
1)
b10001001 /
b10001001 .
b10001001 (
0%
0+
#516
0!
0#
0)
#518
1!
1#
1)
bxxxxxxxx /
bxxxxxxxx .
bxxxxxxxx (
#520
0!
0#
0)
#522
1!
1#
1)
#524
0!
0#
0)
#526
1!
1#
1)
#527
b00100111 &
b00100111 ,
1%
1+
b10111011 '
b10111011 -
#528
0!
0#
0)
#530
1!
1#
1)
b10111011 /
b10111011 .
b10111011 (
0%
0+
#532
0!
0#
0)
#534
1!
1#
1)
bxxxxxxxx /
bxxxxxxxx .
bxxxxxxxx (
#536
0!
0#
0)
#538
1!
1#
1)
#540
0!
0#
0)
#542
1!
1#
1)
#543
b00000111 &
b00000111 ,
1%
1+
b11011011 '
b11011011 -
#544
0!
0#
0)
#546
1!
1#
1)
b11011011 /
b11011011 .
b11011011 (
0%
0+
#548
0!
0#
0)
#550
1!
1#
1)
bxxxxxxxx /
bxxxxxxxx .
bxxxxxxxx (
#552
0!
0#
0)
#554
1!
1#
1)
#556
0!
0#
0)
#558
1!
1#
1)
#559
b00111011 &
b00111011 ,
1%
1+
b01111011 '
b01111011 -
#560
0!
0#
0)
#562
1!
1#
1)
b01111011 /
b01111011 .
b01111011 (
0%
0+
#564
0!
0#
0)
#566
1!
1#
1)
bxxxxxxxx /
bxxxxxxxx .
bxxxxxxxx (
#568
0!
0#
0)
#570
1!
1#
1)
#572
0!
0#
0)
#574
1!
1#
1)
#575
b10110000 &
b10110000 ,
1%
1+
b10001100 '
b10001100 -
#576
0!
0#
0)
#578
1!
1#
1)
b10001100 /
b10001100 .
b10001100 (
0%
0+
#580
0!
0#
0)
#582
1!
1#
1)
bxxxxxxxx /
bxxxxxxxx .
bxxxxxxxx (
#584
0!
0#
0)
#586
1!
1#
1)
#588
0!
0#
0)
#590
1!
1#
1)
#591
b10110010 &
b10110010 ,
1%
1+
b01001000 '
b01001000 -
#592
0!
0#
0)
#594
1!
1#
1)
b01001000 /
b01001000 .
b01001000 (
0%
0+
#596
0!
0#
0)
#598
1!
1#
1)
bxxxxxxxx /
bxxxxxxxx .
bxxxxxxxx (
#600
0!
0#
0)
#602
1!
1#
1)
#604
0!
0#
0)
#606
1!
1#
1)
#607
b10111100 &
b10111100 ,
1%
1+
b10011011 '
b10011011 -
#608
0!
0#
0)
#610
1!
1#
1)
b10011011 /
b10011011 .
b10011011 (
0%
0+
#612
0!
0#
0)
#614
1!
1#
1)
bxxxxxxxx /
bxxxxxxxx .
bxxxxxxxx (
#616
0!
0#
0)
#618
1!
1#
1)
#620
0!
0#
0)
#622
1!
1#
1)
#623
b11100010 &
b11100010 ,
1%
1+
b00000011 '
b00000011 -
#624
0!
0#
0)
#626
1!
1#
1)
b00000011 /
b00000011 .
b00000011 (
0%
0+
#628
0!
0#
0)
#630
1!
1#
1)
bxxxxxxxx /
bxxxxxxxx .
bxxxxxxxx (
#632
0!
0#
0)
#634
1!
1#
1)
#636
0!
0#
0)
#638
1!
1#
1)
#639
b01111011 &
b01111011 ,
1%
1+
b11011010 '
b11011010 -
#640
0!
0#
0)
#642
1!
1#
1)
b11011010 /
b11011010 .
b11011010 (
0%
0+
#644
0!
0#
0)
#646
1!
1#
1)
bxxxxxxxx /
bxxxxxxxx .
bxxxxxxxx (
#648
0!
0#
0)
#650
1!
1#
1)
#652
0!
0#
0)
#654
1!
1#
1)
#655
b00001011 &
b00001011 ,
1%
1+
b11011110 '
b11011110 -
#656
0!
0#
0)
#658
1!
1#
1)
b11011110 /
b11011110 .
b11011110 (
0%
0+
#660
0!
0#
0)
#662
1!
1#
1)
bxxxxxxxx /
bxxxxxxxx .
bxxxxxxxx (
#664
0!
0#
0)
#666
1!
1#
1)
#668
0!
0#
0)
#670
1!
1#
1)
#671
b01000111 &
b01000111 ,
1%
1+
#672
0!
0#
0)
#674
1!
1#
1)
b11011110 /
b11011110 .
b11011110 (
0%
0+
#676
0!
0#
0)
#678
1!
1#
1)
bxxxxxxxx /
bxxxxxxxx .
bxxxxxxxx (
#680
0!
0#
0)
#682
1!
1#
1)
#684
0!
0#
0)
#686
1!
1#
1)
#687
b11001010 &
b11001010 ,
1%
1+
b00011110 '
b00011110 -
#688
0!
0#
0)
#690
1!
1#
1)
b00011110 /
b00011110 .
b00011110 (
0%
0+
#692
0!
0#
0)
#694
1!
1#
1)
bxxxxxxxx /
bxxxxxxxx .
bxxxxxxxx (
#696
0!
0#
0)
#698
1!
1#
1)
#700
0!
0#
0)
#702
1!
1#
1)
#703
b00101101 &
b00101101 ,
1%
1+
b01100110 '
b01100110 -
#704
0!
0#
0)
#706
1!
1#
1)
b01100110 /
b01100110 .
b01100110 (
0%
0+
#708
0!
0#
0)
#710
1!
1#
1)
bxxxxxxxx /
bxxxxxxxx .
bxxxxxxxx (
#712
0!
0#
0)
#714
1!
1#
1)
#716
0!
0#
0)
#718
1!
1#
1)
#719
b00000101 &
b00000101 ,
1%
1+
b01110111 '
b01110111 -
#720
0!
0#
0)
#722
1!
1#
1)
b01110111 /
b01110111 .
b01110111 (
0%
0+
#724
0!
0#
0)
#726
1!
1#
1)
bxxxxxxxx /
bxxxxxxxx .
bxxxxxxxx (
#728
0!
0#
0)
#730
1!
1#
1)
#732
0!
0#
0)
#734
1!
1#
1)
#735
b01101011 &
b01101011 ,
1%
1+
b01100000 '
b01100000 -
#736
0!
0#
0)
#738
1!
1#
1)
b01100000 /
b01100000 .
b01100000 (
0%
0+
#740
0!
0#
0)
#742
1!
1#
1)
b10001001 /
b10001001 .
b10001001 (
#744
0!
0#
0)
#746
1!
1#
1)
#748
0!
0#
0)
#750
1!
1#
1)
#751
b11010001 &
b11010001 ,
1%
1+
b10010010 '
b10010010 -
#752
0!
0#
0)
#754
1!
1#
1)
b10010010 /
b10010010 .
b10010010 (
0%
0+
#756
0!
0#
0)
#758
1!
1#
1)
bxxxxxxxx /
bxxxxxxxx .
bxxxxxxxx (
#760
0!
0#
0)
#762
1!
1#
1)
#764
0!
0#
0)
#766
1!
1#
1)
#767
b01011011 &
b01011011 ,
1%
1+
b01110101 '
b01110101 -
#768
0!
0#
0)
#770
1!
1#
1)
b01110101 /
b01110101 .
b01110101 (
0%
0+
#772
0!
0#
0)
#774
1!
1#
1)
bxxxxxxxx /
bxxxxxxxx .
bxxxxxxxx (
#776
0!
0#
0)
#778
1!
1#
1)
#780
0!
0#
0)
#782
1!
1#
1)
#783
b01100110 &
b01100110 ,
1%
1+
b11001000 '
b11001000 -
#784
0!
0#
0)
#786
1!
1#
1)
b11001000 /
b11001000 .
b11001000 (
0%
0+
#788
0!
0#
0)
#790
1!
1#
1)
bxxxxxxxx /
bxxxxxxxx .
bxxxxxxxx (
