FIFO memory verification/DV Process - 1/dump.vcd
$date
	Sun Jan  8 19:04:39 2023
$end

$version
	Synopsys VCS version S-2021.09
$end

$timescale
	1ns
$end

$comment Csum: 1 4992a0bb15670498 $end


$scope module $unit $end
$upscope $end


$scope module top $end

$scope begin unnamed$$_vcs_3 $end
$upscope $end


$scope begin unnamed$$_vcs_0 $end
$upscope $end


$scope begin unnamed$$_vcs_1 $end
$upscope $end


$scope begin unnamed$$_vcs_2 $end
$upscope $end


$scope module inf $end
$var reg 1 ! clock $end
$var reg 1 " reset $end
$var reg 1 # put $end
$var reg 1 $ get $end
$var reg 1 % full_bar $end
$var reg 1 & empty_bar $end
$var reg 16 ' data_in [15:0] $end
$var reg 16 ( data_out [15:0] $end
$upscope $end


$scope module dut $end
$var wire 1 ) clk $end
$var wire 1 * reset $end
$var wire 1 + put $end
$var wire 1 , get $end
$var wire 16 - data_in [15:0] $end
$var reg 1 . empty_bar $end
$var reg 1 / full_bar $end
$var reg 16 0 data_out [15:0] $end
$var reg 4 1 wr_ptr [3:0] $end
$var reg 4 2 rd_ptr [3:0] $end
$var wire 3 3 wr_ptr_int [2:0] $end
$var wire 3 4 rd_ptr_int [2:0] $end
$var wire 1 5 full $end
$var wire 1 6 empty $end
$var wire 4 7 wr_rd [3:0] $end
$var wire 1 8 put_e $end
$var wire 1 9 get_e $end
$upscope $end

$upscope $end


$scope module uvm_pkg $end
$var reg 32 : UVM_UNBOUNDED_CONNECTIONS [31:0] $end
$var reg 1 ; uvm_start_uvm_declarations $end
$var time 64 < setting_offset $end
$var reg 32 = setting_verbosity [31:0] $end
$var reg 1 > is_verdi_set_verbosity_called $end
$var reg 32 ? uvm_global_random_seed [31:0] $end
$upscope $end

$enddefinitions $end

#0
$dumpvars
0>
1;
bxxxxxxxxxxxxxxxxxxxxxxxxxxxxxxxxxxxxxxxxxxxxxxxxxxxxxxxxxxxxxxxx <
b11111111111111111111111111111111 :
b00000000000000000000000000000000 =
b01000010000001111100110001000111 ?
bxxxxxxxxxxxxxxxx (
bxxxxxxxxxxxxxxxx '
16
0.
05
1/
09
x8
bxxxxxxxxxxxxxxxx 0
b0000 2
b000 4
b0000 1
b000 3
b0000 7
bxxxxxxxxxxxxxxxx -
1!
0&
1%
x$
x#
1"
1)
x,
x+
1*
$end
#5
0!
0)
#10
1!
1)
0#
0+
0$
0,
08
#15
0!
0)
#20
1!
1)
#25
0!
0)
0"
0*
#30
1!
1)
#31
1#
1+
b0101001101101110 '
b0101001101101110 -
18
#35
0!
0)
#40
1!
1)
b0001 1
b001 3
b0001 7
06
1.
1&
#41
b0010010110100011 '
b0010010110100011 -
#45
0!
0)
#50
1!
1)
b0010 1
b010 3
b0010 7
#51
b0101001011011101 '
b0101001011011101 -
#55
0!
0)
#60
1!
1)
b0011 1
b011 3
b0011 7
#61
b1101010001010101 '
b1101010001010101 -
#65
0!
0)
#70
1!
1)
b0100 1
b100 3
b0100 7
#71
b1011011000111000 '
b1011011000111000 -
#75
0!
0)
#80
1!
1)
b0101 1
b101 3
b0101 7
#81
b1001011000011111 '
b1001011000011111 -
#85
0!
0)
#90
1!
1)
b0110 1
b110 3
b0110 7
#91
b0100001010001110 '
b0100001010001110 -
#95
0!
0)
#100
1!
1)
b0111 1
b111 3
b0111 7
#101
b0011101100100111 '
b0011101100100111 -
#105
0!
0)
#110
1!
1)
b1000 1
b000 3
b1000 7
15
08
0/
0%
#111
b0001111010100101 '
b0001111010100101 -
#115
0!
0)
#120
1!
1)
#121
b1011000101101100 '
b1011000101101100 -
#125
0!
0)
#130
1!
1)
#131
b0010100100000000 '
b0010100100000000 -
#135
0!
0)
#140
1!
1)
#141
b1101011111111011 '
b1101011111111011 -
#145
0!
0)
#150
1!
1)
#151
b1000101011110100 '
b1000101011110100 -
#155
0!
0)
#160
1!
1)
#161
b0010100001001001 '
b0010100001001001 -
#165
0!
0)
#170
1!
1)
#171
b1011010110101001 '
b1011010110101001 -
#175
0!
0)
#180
1!
1)
#181
b1100010111001111 '
b1100010111001111 -
#185
0!
0)
#190
1!
1)
#191
b1110011101111100 '
b1110011101111100 -
#195
0!
0)
#200
1!
1)
#201
b1010011010110010 '
b1010011010110010 -
#205
0!
0)
#210
1!
1)
#211
b1000010101001010 '
b1000010101001010 -
#215
0!
0)
#220
1!
1)
#221
b1111110001010001 '
b1111110001010001 -
#225
0!
0)
#230
1!
1)
#231
0#
0+
1$
1,
b1011110100011001 '
b1011110100011001 -
19
#235
0!
0)
#240
1!
1)
b0001 2
b001 4
b0111 7
05
b0101001101101110 0
b0101001101101110 (
1/
1%
#241
b1101010101100010 '
b1101010101100010 -
#245
0!
0)
#250
1!
1)
b0010 2
b010 4
b0110 7
b0010010110100011 0
b0010010110100011 (
#251
b1000000011001011 '
b1000000011001011 -
#255
0!
0)
#260
1!
1)
b0011 2
b011 4
b0101 7
b0101001011011101 0
b0101001011011101 (
#261
b1000010011100000 '
b1000010011100000 -
#265
0!
0)
#270
1!
1)
b0100 2
b100 4
b0100 7
b1101010001010101 0
b1101010001010101 (
#271
b1010000101110001 '
b1010000101110001 -
#275
0!
0)
#280
1!
1)
b0101 2
b101 4
b0011 7
b1011011000111000 0
b1011011000111000 (
#281
b0001001000101100 '
b0001001000101100 -
#285
0!
0)
#290
1!
1)
b0110 2
b110 4
b0010 7
b1001011000011111 0
b1001011000011111 (
#291
b1010100110000110 '
b1010100110000110 -
#295
0!
0)
#300
1!
1)
b0111 2
b111 4
b0001 7
b0100001010001110 0
b0100001010001110 (
#301
b1011110101011110 '
b1011110101011110 -
#305
0!
0)
#310
1!
1)
b1000 2
b000 4
b0000 7
16
09
b0011101100100111 0
b0011101100100111 (
0.
0&
#311
b0111000101011001 '
b0111000101011001 -
#315
0!
0)
#320
1!
1)
#321
b0110000110110110 '
b0110000110110110 -
#325
0!
0)
#330
1!
1)
#331
b0101000101000001 '
b0101000101000001 -
#335
0!
0)
#340
1!
1)
#341
b0011110001100010 '
b0011110001100010 -
#345
0!
0)
#350
1!
1)
#351
b0010011001110110 '
b0010011001110110 -
#355
0!
0)
#360
1!
1)
#361
b0111011110010110 '
b0111011110010110 -
#365
0!
0)
#370
1!
1)
#371
b1100000110111110 '
b1100000110111110 -
#375
0!
0)
#380
1!
1)
#381
b0010010000101001 '
b0010010000101001 -
#385
0!
0)
#390
1!
1)
#391
b1111110001011010 '
b1111110001011010 -
#395
0!
0)
#400
1!
1)
#401
b0011110111000010 '
b0011110111000010 -
#405
0!
0)
#410
1!
1)
#411
b1000011111110100 '
b1000011111110100 -
#415
0!
0)
#420
1!
1)
#421
b1010100000101011 '
b1010100000101011 -
